{"count":39631,"next":"https://api.rawg.io/api/games?key=3c73e733b66c4c38b0c30137de245589&page=2&page_size=1&search=Storm+in+a+Teacup","previous":null,"results":[{"slug":"storm-in-a-teacup","name":"Storm in a Teacup","playtime":1,"platforms":[{"platform":{"id":4,"name":"PC","slug":"pc"}},{"platform":{"id":7,"name":"Nintendo Switch","slug":"nintendo-switch"}},{"platform":{"id":3,"name":"iOS","slug":"ios"}},{"platform":{"id":5,"name":"macOS","slug":"macos"}}],"stores":[{"store":{"id":1,"name":"Steam","slug":"steam"}},{"store":{"id":4,"name":"App Store","slug":"apple-appstore"}},{"store":{"id":6,"name":"Nintendo Store","slug":"nintendo"}}],"released":"2011-05-19","tba":false,"background_image":"https://media.rawg.io/media/screenshots/1b1/1b108a7778d958b50e2e76e88c1c9c53.jpeg","rating":2.67,"rating_top":3,"ratings":[{"id":3,"title":"meh","count":5,"percent":83.33},{"id":1,"title":"skip","count":1,"percent":16.67}],"ratings_count":6,"reviews_text_count":0,"added":233,"added_by_status":{"yet":2,"owned":220,"beaten":1,"toplay":2,"dropped":8},"metacritic":null,"suggestions_count":366,"updated":"2023-04-07T21:19:37","id":1810,"score":"75.769936","clip":null,"tags":[{"id":31,"name":"Singleplayer","slug":"singleplayer","language":"eng","games_count":238777,"image_background":"https://media.rawg.io/media/games/8cc/8cce7c0e99dcc43d66c8efd42f9d03e3.jpg"},{"id":40847,"name":"Steam Achievements","slug":"steam-achievements","language":"eng","games_count":45242,"image_background":"https://media.rawg.io/media/games/198/1988a337305e008b41d7f536ce9b73f6.jpg"},{"id":42398,"name":"Инди","slug":"indi-2","language":"rus","games_count":62263,"image_background":"https://media.rawg.io/media/games/5be/5bec14622f6faf804a592176577c1347.jpg"},{"id":42399,"name":"Казуальная игра","slug":"kazualnaia-igra","language":"rus","games_count":48619,"image_background":"https://media.rawg.io/media/games/852/8522935d8ab27b610a254b52de0da212.jpg"},{"id":42463,"name":"Платформер","slug":"platformer-2","language":"rus","games_count":10123,"image_background":"https://media.rawg.io/media/games/85c/85c8ae70e7cdf0105f06ef6bdce63b8b.jpg"}],"esrb_rating":null,"user_game":null,"reviews_count":6,"saturated_color":"0f0f0f","dominant_color":"0f0f0f","short_screenshots":[{"id":-1,"image":"https://media.rawg.io/media/screenshots/1b1/1b108a7778d958b50e2e76e88c1c9c53.jpeg"},{"id":196841,"image":"https://media.rawg.io/media/screenshots/cdb/cdb23342f015e5de7977b3f233b08653.jpg"},{"id":196842,"image":"https://media.rawg.io/media/screenshots/c5e/c5e291b2bc48e7a31150cece674de052.jpg"},{"id":196843,"image":"https://media.rawg.io/media/screenshots/aae/aae20885e1908ce0f173b85f234012c3.jpg"},{"id":196844,"image":"https://media.rawg.io/media/screenshots/f00/f00532de7260ad8879af2ee2b334a610.jpg"},{"id":196845,"image":"https://media.rawg.io/media/screenshots/4f9/4f90300ffec3029c904508fe53f93bb5.jpg"},{"id":16295,"image":"https://media.rawg.io/media/screenshots/d99/d9918fc057fc14df7b6c20c29fdf0742.jpeg"}],"parent_platforms":[{"platform":{"id":1,"name":"PC","slug":"pc"}},{"platform":{"id":4,"name":"iOS","slug":"ios"}},{"platform":{"id":5,"name":"Apple Macintosh","slug":"mac"}},{"platform":{"id":7,"name":"Nintendo","slug":"nintendo"}}],"genres":[{"id":40,"name":"Casual","slug":"casual"},{"id":51,"name":"Indie","slug":"indie"},{"id":3,"name":"Adventure","slug":"adventure"},{"id":7,"name":"Puzzle","slug":"puzzle"}]}],"user_platforms":false}