{"count":6,"next":"https://api.rawg.io/api/games/insane-2/screenshots?key=3c73e733b66c4c38b0c30137de245589&page=2&page_size=5","previous":null,"results":[{"id":214404,"image":"https://media.rawg.io/media/screenshots/497/497fc2619b6e042d55e86349439a6c24.jpg","width":1024,"height":576,"is_deleted":false},{"id":214405,"image":"https://media.rawg.io/media/screenshots/c57/c575a5fe6a165ec38a971a088a327688.jpg","width":1280,"height":720,"is_deleted":false},{"id":214406,"image":"https://media.rawg.io/media/screenshots/fe2/fe245c8449326bd208d051341ae9dc5a.jpg","width":1280,"height":720,"is_deleted":false},{"id":214407,"image":"https://media.rawg.io/media/screenshots/4ac/4ac6912a99e4b0e8f4b6f8ab6ead999a.jpg","width":1680,"height":1050,"is_deleted":false},{"id":214408,"image":"https://media.rawg.io/media/screenshots/d81/d810a1d49666ac91ea467efae903a274.jpg","width":1280,"height":720,"is_deleted":false}]}