{"count":6,"next":"https://api.rawg.io/api/games/evochron-mercenary/screenshots?key=3c73e733b66c4c38b0c30137de245589&page=2&page_size=5","previous":null,"results":[{"id":128210,"image":"https://media.rawg.io/media/screenshots/16e/16eb9afb67c2230c7cb88f8df2ad0cb0.jpg","width":1920,"height":1080,"is_deleted":false},{"id":128211,"image":"https://media.rawg.io/media/screenshots/ff0/ff0f1753b4ef9db26fe33097ff1dab9b.jpg","width":1920,"height":1080,"is_deleted":false},{"id":128212,"image":"https://media.rawg.io/media/screenshots/f3a/f3a42aa4d62ecb529322131103a29c30.jpg","width":1920,"height":1080,"is_deleted":false},{"id":128213,"image":"https://media.rawg.io/media/screenshots/e04/e04cbba2b16cf8a9d349c5b0e057c114.jpg","width":1920,"height":1080,"is_deleted":false},{"id":128214,"image":"https://media.rawg.io/media/screenshots/fd5/fd5a94657ea97f87b0d15b5f02997858.jpg","width":1920,"height":1080,"is_deleted":false}]}