{"count":18171,"next":"https://api.rawg.io/api/games?key=3c73e733b66c4c38b0c30137de245589&page=2&page_size=1&search=dota+2","previous":null,"results":[{"slug":"dota-2","name":"Dota 2","playtime":14,"platforms":[{"platform":{"id":4,"name":"PC","slug":"pc"}},{"platform":{"id":5,"name":"macOS","slug":"macos"}},{"platform":{"id":6,"name":"Linux","slug":"linux"}}],"stores":[{"store":{"id":1,"name":"Steam","slug":"steam"}}],"released":"2013-07-09","tba":false,"background_image":"https://media.rawg.io/media/games/6fc/6fcf4cd3b17c288821388e6085bb0fc9.jpg","rating":3.07,"rating_top":3,"ratings":[{"id":3,"title":"meh","count":915,"percent":32.15},{"id":4,"title":"recommended","count":769,"percent":27.02},{"id":1,"title":"skip","count":727,"percent":25.54},{"id":5,"title":"exceptional","count":435,"percent":15.28}],"ratings_count":2808,"reviews_text_count":24,"added":13069,"added_by_status":{"yet":211,"owned":10090,"beaten":543,"toplay":31,"dropped":1730,"playing":464},"metacritic":90,"suggestions_count":432,"updated":"2025-04-28T08:19:40","id":10213,"score":"65.77741","clip":null,"tags":[{"id":42417,"name":"Экшен","slug":"ekshen","language":"rus","games_count":46069,"image_background":"https://media.rawg.io/media/games/6fc/6fcf4cd3b17c288821388e6085bb0fc9.jpg"},{"id":7,"name":"Multiplayer","slug":"multiplayer","language":"eng","games_count":40643,"image_background":"https://media.rawg.io/media/games/b7b/b7b8381707152afc7d91f5d95de70e39.jpg"},{"id":42425,"name":"Для нескольких игроков","slug":"dlia-neskolkikh-igrokov","language":"rus","games_count":11626,"image_background":"https://media.rawg.io/media/games/736/73619bd336c894d6941d926bfd563946.jpg"},{"id":7808,"name":"steam-trading-cards","slug":"steam-trading-cards","language":"eng","games_count":7568,"image_background":"https://media.rawg.io/media/games/562/562553814dd54e001a541e4ee83a591c.jpg"},{"id":24,"name":"RPG","slug":"rpg","language":"eng","games_count":24271,"image_background":"https://media.rawg.io/media/games/7cf/7cfc9220b401b7a300e409e539c9afd5.jpg"},{"id":18,"name":"Co-op","slug":"co-op","language":"eng","games_count":13201,"image_background":"https://media.rawg.io/media/games/c6b/c6bfece1daf8d06bc0a60632ac78e5bf.jpg"},{"id":42412,"name":"Ролевая игра","slug":"rolevaia-igra","language":"rus","games_count":20673,"image_background":"https://media.rawg.io/media/games/d69/d69810315bd7e226ea2d21f9156af629.jpg"},{"id":42421,"name":"Стратегия","slug":"strategiia","language":"rus","games_count":22213,"image_background":"https://media.rawg.io/media/games/736/73619bd336c894d6941d926bfd563946.jpg"},{"id":411,"name":"cooperative","slug":"cooperative","language":"eng","games_count":5912,"image_background":"https://media.rawg.io/media/games/dd5/dd50d4266915d56dd5b63ae1bf72606a.jpg"},{"id":42413,"name":"Симулятор","slug":"simuliator","language":"rus","games_count":23018,"image_background":"https://media.rawg.io/media/games/48e/48e63bbddeddbe9ba81942772b156664.jpg"},{"id":9,"name":"Online Co-Op","slug":"online-co-op","language":"eng","games_count":6771,"image_background":"https://media.rawg.io/media/games/18c/18ca24ed4b700668c36b11ebc35f3d23.jpg"},{"id":42420,"name":"Сложная","slug":"slozhnaia","language":"rus","games_count":5914,"image_background":"https://media.rawg.io/media/games/942/9424d6bb763dc38d9378b488603c87fa.jpg"},{"id":42480,"name":"Фэнтези","slug":"fentezi","language":"rus","games_count":14526,"image_background":"https://media.rawg.io/media/games/5be/5bec14622f6faf804a592176577c1347.jpg"},{"id":64,"name":"Fantasy","slug":"fantasy","language":"eng","games_count":30770,"image_background":"https://media.rawg.io/media/games/63f/63f0e68688cad279ed38cde931dbfcdb.jpg"},{"id":49,"name":"Difficult","slug":"difficult","language":"eng","games_count":13886,"image_background":"https://media.rawg.io/media/games/48e/48e63bbddeddbe9ba81942772b156664.jpg"},{"id":79,"name":"Free to Play","slug":"free-to-play","language":"eng","games_count":8573,"image_background":"https://media.rawg.io/media/games/26b/26b27e1da9e3727fcb12e3e4e86c8c19.jpg"},{"id":42433,"name":"Совместная игра по сети","slug":"sovmestnaia-igra-po-seti","language":"rus","games_count":1226,"image_background":"https://media.rawg.io/media/games/1bd/1bd2657b81eb0c99338120ad444b24ff.jpg"},{"id":42538,"name":"Бесплатная игра","slug":"besplatnaia-igra","language":"rus","games_count":8561,"image_background":"https://media.rawg.io/media/screenshots/f7e/f7e70957c14ead1fa187a616dfa83e09.jpg"},{"id":97,"name":"Action RPG","slug":"action-rpg","language":"eng","games_count":8015,"image_background":"https://media.rawg.io/media/games/ee3/ee3e10193aafc3230ba1cae426967d10.jpg"},{"id":42489,"name":"Ролевой экшен","slug":"rolevoi-ekshen","language":"rus","games_count":5006,"image_background":"https://media.rawg.io/media/games/d82/d82990b9c67ba0d2d09d4e6fa88885a7.jpg"},{"id":40852,"name":"Steam Workshop","slug":"steam-workshop","language":"eng","games_count":1659,"image_background":"https://media.rawg.io/media/games/c11/c11a0b92b4c28f2e0db489f430142653.jpg"},{"id":157,"name":"PvP","slug":"pvp","language":"eng","games_count":10910,"image_background":"https://media.rawg.io/media/games/1a1/1a17e9b6286edb7e1f1e510110ccb0c0.jpg"},{"id":42434,"name":"Игрок против игрока","slug":"igrok-protiv-igroka","language":"rus","games_count":6323,"image_background":"https://media.rawg.io/media/games/737/737ea5662211d2e0bbd6f5989189e4f1.jpg"},{"id":42520,"name":"Реиграбельность","slug":"reigrabelnost","language":"rus","games_count":2545,"image_background":"https://media.rawg.io/media/games/d58/d588947d4286e7b5e0e12e1bea7d9844.jpg"},{"id":42530,"name":"Кастомизация персонажа","slug":"kastomizatsiia-personazha","language":"rus","games_count":5049,"image_background":"https://media.rawg.io/media/games/bce/bce62fbc7cf74bf6a1a37340993ec148.jpg"},{"id":40837,"name":"In-App Purchases","slug":"in-app-purchases","language":"eng","games_count":3094,"image_background":"https://media.rawg.io/media/games/6fc/6fcf4cd3b17c288821388e6085bb0fc9.jpg"},{"id":121,"name":"Character Customization","slug":"character-customization","language":"eng","games_count":5821,"image_background":"https://media.rawg.io/media/games/995/9951d9d55323d08967640f7b9ab3e342.jpg"},{"id":5,"name":"Replay Value","slug":"replay-value","language":"eng","games_count":1996,"image_background":"https://media.rawg.io/media/games/6fc/6fcf4cd3b17c288821388e6085bb0fc9.jpg"},{"id":11,"name":"Team-Based","slug":"team-based","language":"eng","games_count":1880,"image_background":"https://media.rawg.io/media/games/48e/48e63bbddeddbe9ba81942772b156664.jpg"},{"id":42450,"name":"Командная","slug":"komandnaia","language":"rus","games_count":1580,"image_background":"https://media.rawg.io/media/games/476/476178ef18ab0534771d099f51cdc694.jpg"},{"id":42476,"name":"Соревновательная","slug":"sorevnovatelnaia","language":"rus","games_count":1042,"image_background":"https://media.rawg.io/media/screenshots/54f/54fcf1a626faa92afa3f5d2834dbc5ce.jpg"},{"id":42503,"name":"Стратегия в реальном времени","slug":"strategiia-v-realnom-vremeni","language":"rus","games_count":2244,"image_background":"https://media.rawg.io/media/games/569/56978b5a77f13aa2ec5d09ec81d01cad.jpg"},{"id":168,"name":"RTS","slug":"rts","language":"eng","games_count":2698,"image_background":"https://media.rawg.io/media/games/0fa/0fadc446fd1e9ae9e23a32793d9a5406.jpg"},{"id":170,"name":"Competitive","slug":"competitive","language":"eng","games_count":1238,"image_background":"https://media.rawg.io/media/screenshots/616/616437f375a1080756c917b1437404f3.jpg"},{"id":40856,"name":"Valve Anti-Cheat enabled","slug":"valve-anti-cheat-enabled","language":"eng","games_count":105,"image_background":"https://media.rawg.io/media/games/78d/78dfae12fb8c5b16cd78648553071e0a.jpg"},{"id":42533,"name":"Башенная защита","slug":"bashennaia-zashchita","language":"rus","games_count":2354,"image_background":"https://media.rawg.io/media/screenshots/ec5/ec53f6efc94777fe100032f8bbb12946.jpg"},{"id":65,"name":"Tower Defense","slug":"tower-defense","language":"eng","games_count":7714,"image_background":"https://media.rawg.io/media/games/853/853475c28e65ff1c50422e1316dbc5a8.jpeg"},{"id":42588,"name":"Киберспорт","slug":"kibersport","language":"rus","games_count":855,"image_background":"https://media.rawg.io/media/games/fba/fbae1bcfae1feffda6a11fbc1c939420.jpg"},{"id":169,"name":"MOBA","slug":"moba","language":"eng","games_count":673,"image_background":"https://media.rawg.io/media/screenshots/925/925ff3b4b5b7633e1e2b24b1dc160d53.jpg"},{"id":73,"name":"e-sports","slug":"e-sports","language":"eng","games_count":80,"image_background":"https://media.rawg.io/media/games/cc7/cc77035eb972f179f5090ee2a0fabd99.jpg"},{"id":40909,"name":"SteamVR Collectibles","slug":"steamvr-collectibles","language":"eng","games_count":44,"image_background":"https://media.rawg.io/media/screenshots/ccd/ccd34c9f511f91edaa03bea681d207ea.jpg"}],"esrb_rating":null,"user_game":null,"reviews_count":2846,"saturated_color":"0f0f0f","dominant_color":"0f0f0f","short_screenshots":[{"id":-1,"image":"https://media.rawg.io/media/games/6fc/6fcf4cd3b17c288821388e6085bb0fc9.jpg"},{"id":78326,"image":"https://media.rawg.io/media/screenshots/cef/cefd0f45c88be2d6e2ff7eed94c16cf3.jpg"},{"id":78327,"image":"https://media.rawg.io/media/screenshots/e2a/e2a1a6c8b07bcdb91d7c6050b16854c5.jpg"},{"id":78328,"image":"https://media.rawg.io/media/screenshots/55e/55e2c2ff16229eef87cfd8728ca537ac.jpg"},{"id":78329,"image":"https://media.rawg.io/media/screenshots/601/601ceb08d04da42f4de5d8b9016f31a6.jpg"},{"id":78330,"image":"https://media.rawg.io/media/screenshots/f02/f02a389dafd748b801cb4ff971a868af.jpg"},{"id":78331,"image":"https://media.rawg.io/media/screenshots/da6/da6e4cba4e5787674d0e6877d1fc426a.jpg"}],"parent_platforms":[{"platform":{"id":1,"name":"PC","slug":"pc"}},{"platform":{"id":5,"name":"Apple Macintosh","slug":"mac"}},{"platform":{"id":6,"name":"Linux","slug":"linux"}}],"genres":[{"id":59,"name":"Massively Multiplayer","slug":"massively-multiplayer"},{"id":4,"name":"Action","slug":"action"}]}],"user_platforms":false}