{"count":6,"next":"https://api.rawg.io/api/games/elden-ring/screenshots?key=3c73e733b66c4c38b0c30137de245589&page=2&page_size=5","previous":null,"results":[{"id":2877235,"image":"https://media.rawg.io/media/screenshots/36f/36f941f72e2b2a41629f5fb3bd448688.jpg","width":1217,"height":684,"is_deleted":false},{"id":2877236,"image":"https://media.rawg.io/media/screenshots/290/29096848622521df7555850000236cb6.jpg","width":1223,"height":686,"is_deleted":false},{"id":2877237,"image":"https://media.rawg.io/media/screenshots/807/807685454ea8fb87363eedd49677f49b.jpg","width":1222,"height":686,"is_deleted":false},{"id":2877238,"image":"https://media.rawg.io/media/screenshots/2ee/2eea4d4cce2836f689d9d39d2a4a94d5.jpg","width":1222,"height":682,"is_deleted":false},{"id":2877239,"image":"https://media.rawg.io/media/screenshots/de9/de9b28bdd0bdb9937c7f82e55f845bb6.jpg","width":1220,"height":685,"is_deleted":false}]}