{"count":6,"next":"https://api.rawg.io/api/games/leisure-suit-larry-reloaded/screenshots?key=3c73e733b66c4c38b0c30137de245589&page=2&page_size=5","previous":null,"results":[{"id":223042,"image":"https://media.rawg.io/media/screenshots/0ab/0ab868276514ac4970cf8efa29f2d7b4_lasDfrE.jpg","width":710,"height":443,"is_deleted":false},{"id":223043,"image":"https://media.rawg.io/media/screenshots/1e1/1e16b12770543a1ed526e9bbd4027db3.jpg","width":710,"height":429,"is_deleted":false},{"id":223044,"image":"https://media.rawg.io/media/screenshots/952/95214ae36adadf8ef27d4142ccfadbe1.jpg","width":710,"height":436,"is_deleted":false},{"id":223045,"image":"https://media.rawg.io/media/screenshots/1c4/1c470521115453b7c850880a290225c3.jpg","width":710,"height":443,"is_deleted":false},{"id":223046,"image":"https://media.rawg.io/media/screenshots/cc7/cc7774eac175c6ce3cd5888700ab46ae.jpg","width":710,"height":444,"is_deleted":false}]}