{"count":6,"next":"https://api.rawg.io/api/games/anno-2070/screenshots?key=3c73e733b66c4c38b0c30137de245589&page=2&page_size=5","previous":null,"results":[{"id":163475,"image":"https://media.rawg.io/media/screenshots/4c6/4c659381c45735508b109ebf610ded2c.jpg","width":1749,"height":1080,"is_deleted":false},{"id":163476,"image":"https://media.rawg.io/media/screenshots/0f3/0f3107d02c231ccc5e2dc7df7d51ed35.jpg","width":1853,"height":1050,"is_deleted":false},{"id":163477,"image":"https://media.rawg.io/media/screenshots/88f/88f1bb3d3eea2f3ed44f749834eb121d.jpg","width":1749,"height":1080,"is_deleted":false},{"id":163478,"image":"https://media.rawg.io/media/screenshots/b5a/b5a9ece5dbefda360db9c6a0e3cf7583.jpg","width":1848,"height":1046,"is_deleted":false},{"id":163479,"image":"https://media.rawg.io/media/screenshots/1fd/1fd43092eff9f1db63756a51f3f754eb.jpg","width":1855,"height":1036,"is_deleted":false}]}