{"count":142,"next":"https://api.rawg.io/api/games?key=3c73e733b66c4c38b0c30137de245589&page=2&page_size=1&search=Evochron+Mercenary","previous":null,"results":[{"slug":"evochron-mercenary","name":"Evochron Mercenary","playtime":2,"platforms":[{"platform":{"id":4,"name":"PC","slug":"pc"}}],"stores":[{"store":{"id":1,"name":"Steam","slug":"steam"}}],"released":"2012-01-16","tba":false,"background_image":"https://media.rawg.io/media/screenshots/cbc/cbcf5303f390668d0af0a5aa5c577701.jpg","rating":3.0,"rating_top":4,"ratings":[{"id":4,"title":"recommended","count":6,"percent":60.0},{"id":1,"title":"skip","count":3,"percent":30.0},{"id":3,"title":"meh","count":1,"percent":10.0}],"ratings_count":10,"reviews_text_count":0,"added":141,"added_by_status":{"yet":7,"owned":126,"toplay":3,"dropped":5},"metacritic":70,"suggestions_count":485,"updated":"2023-07-30T03:52:03","id":14679,"score":"82.61805","clip":null,"tags":[{"id":31,"name":"Singleplayer","slug":"singleplayer","language":"eng","games_count":237667,"image_background":"https://media.rawg.io/media/games/b45/b45575f34285f2c4479c9a5f719d972e.jpg"},{"id":42417,"name":"Экшен","slug":"ekshen","language":"rus","games_count":45460,"image_background":"https://media.rawg.io/media/games/4be/4be6a6ad0364751a96229c56bf69be59.jpg"},{"id":42398,"name":"Инди","slug":"indi-2","language":"rus","games_count":61762,"image_background":"https://media.rawg.io/media/games/942/9424d6bb763dc38d9378b488603c87fa.jpg"},{"id":7,"name":"Multiplayer","slug":"multiplayer","language":"eng","games_count":40396,"image_background":"https://media.rawg.io/media/games/b8c/b8c243eaa0fbac8115e0cdccac3f91dc.jpg"},{"id":42425,"name":"Для нескольких игроков","slug":"dlia-neskolkikh-igrokov","language":"rus","games_count":11444,"image_background":"https://media.rawg.io/media/games/1bd/1bd2657b81eb0c99338120ad444b24ff.jpg"},{"id":7808,"name":"steam-trading-cards","slug":"steam-trading-cards","language":"eng","games_count":7568,"image_background":"https://media.rawg.io/media/games/e6d/e6de699bd788497f4b52e2f41f9698f2.jpg"},{"id":18,"name":"Co-op","slug":"co-op","language":"eng","games_count":13057,"image_background":"https://media.rawg.io/media/games/15c/15c95a4915f88a3e89c821526afe05fc.jpg"},{"id":42442,"name":"Открытый мир","slug":"otkrytyi-mir","language":"rus","games_count":6632,"image_background":"https://media.rawg.io/media/games/62c/62c7c8b28a27b83680b22fb9d33fc619.jpg"},{"id":36,"name":"Open World","slug":"open-world","language":"eng","games_count":8446,"image_background":"https://media.rawg.io/media/games/26d/26d4437715bee60138dab4a7c8c59c92.jpg"},{"id":411,"name":"cooperative","slug":"cooperative","language":"eng","games_count":5813,"image_background":"https://media.rawg.io/media/games/d58/d588947d4286e7b5e0e12e1bea7d9844.jpg"},{"id":42423,"name":"Научная фантастика","slug":"nauchnaia-fantastika","language":"rus","games_count":9569,"image_background":"https://media.rawg.io/media/games/587/587588c64afbff80e6f444eb2e46f9da.jpg"},{"id":32,"name":"Sci-fi","slug":"sci-fi","language":"eng","games_count":20666,"image_background":"https://media.rawg.io/media/games/9dd/9ddabb34840ea9227556670606cf8ea3.jpg"},{"id":42413,"name":"Симулятор","slug":"simuliator","language":"rus","games_count":22607,"image_background":"https://media.rawg.io/media/games/03d/03d17d237f9541b67a13f9425ced4ca4.jpg"},{"id":37,"name":"Sandbox","slug":"sandbox","language":"eng","games_count":7698,"image_background":"https://media.rawg.io/media/games/b4e/b4e4c73d5aa4ec66bbf75375c4847a2b.jpg"},{"id":42444,"name":"Песочница","slug":"pesochnitsa","language":"rus","games_count":4927,"image_background":"https://media.rawg.io/media/games/20a/20aa03a10cda45239fe22d035c0ebe64.jpg"},{"id":25,"name":"Space","slug":"space","language":"eng","games_count":43558,"image_background":"https://media.rawg.io/media/screenshots/bf7/bf71c819eace914e6c42ae3ecb667308.jpg"},{"id":42422,"name":"Космос","slug":"kosmos-2","language":"rus","games_count":4891,"image_background":"https://media.rawg.io/media/games/2fd/2fd1b58116b10cc1f4442bee5593ca7c.jpg"},{"id":42458,"name":"Полёты","slug":"polioty","language":"rus","games_count":1658,"image_background":"https://media.rawg.io/media/screenshots/4bc/4bc75319da5601d337452ca0462255ab.jpg"},{"id":53,"name":"Flight","slug":"flight","language":"eng","games_count":4574,"image_background":"https://media.rawg.io/media/screenshots/123/123745b2adbd3cbc7c8e41fc839230dd.jpg"},{"id":42565,"name":"Космический симулятор","slug":"kosmicheskii-simuliator","language":"rus","games_count":955,"image_background":"https://media.rawg.io/media/screenshots/842/842ab43c709d2acb95691c927de9cb93.jpg"},{"id":245,"name":"Trading","slug":"trading","language":"eng","games_count":1326,"image_background":"https://media.rawg.io/media/screenshots/b00/b00b7cc04dd09531b631ea4575696276.jpg"},{"id":42498,"name":"Обмен","slug":"obmen","language":"rus","games_count":303,"image_background":"https://media.rawg.io/media/screenshots/364/3640726eff1d5c28eeb56f37b31cc339.jpg"},{"id":241,"name":"Space Sim","slug":"space-sim","language":"eng","games_count":1979,"image_background":"https://media.rawg.io/media/screenshots/073/07349dcc41f4d1f095f26fb873cbf0d5.jpg"},{"id":129,"name":"TrackIR","slug":"trackir","language":"eng","games_count":38,"image_background":"https://media.rawg.io/media/games/1f5/1f5ddf7199f2778ff83663b93b5cb330.jpg"}],"esrb_rating":null,"user_game":null,"reviews_count":10,"saturated_color":"0f0f0f","dominant_color":"0f0f0f","short_screenshots":[{"id":-1,"image":"https://media.rawg.io/media/screenshots/cbc/cbcf5303f390668d0af0a5aa5c577701.jpg"},{"id":128210,"image":"https://media.rawg.io/media/screenshots/16e/16eb9afb67c2230c7cb88f8df2ad0cb0.jpg"},{"id":128211,"image":"https://media.rawg.io/media/screenshots/ff0/ff0f1753b4ef9db26fe33097ff1dab9b.jpg"},{"id":128212,"image":"https://media.rawg.io/media/screenshots/f3a/f3a42aa4d62ecb529322131103a29c30.jpg"},{"id":128213,"image":"https://media.rawg.io/media/screenshots/e04/e04cbba2b16cf8a9d349c5b0e057c114.jpg"},{"id":128214,"image":"https://media.rawg.io/media/screenshots/fd5/fd5a94657ea97f87b0d15b5f02997858.jpg"},{"id":128215,"image":"https://media.rawg.io/media/screenshots/24c/24c45047bf3fb92bedad9dda1d55bd95.jpg"}],"parent_platforms":[{"platform":{"id":1,"name":"PC","slug":"pc"}}],"genres":[{"id":51,"name":"Indie","slug":"indie"},{"id":4,"name":"Action","slug":"action"},{"id":14,"name":"Simulation","slug":"simulation"}]}],"user_platforms":false}