{"count":6,"next":"https://api.rawg.io/api/games/unstoppable-gorg/screenshots?key=3c73e733b66c4c38b0c30137de245589&page=2&page_size=5","previous":null,"results":[{"id":140671,"image":"https://media.rawg.io/media/screenshots/d9d/d9d53cdc77f5e008983f53ef1162618d.jpg","width":1920,"height":1080,"is_deleted":false},{"id":140672,"image":"https://media.rawg.io/media/screenshots/ccf/ccfac9a849949591ea01533e47e17d7e.jpg","width":1920,"height":1080,"is_deleted":false},{"id":140673,"image":"https://media.rawg.io/media/screenshots/604/604820d19677bc0c330735871ad8aa59.jpg","width":1920,"height":1080,"is_deleted":false},{"id":140674,"image":"https://media.rawg.io/media/screenshots/895/8959b6df47354e9e4480aece8176db8e.jpg","width":1920,"height":1080,"is_deleted":false},{"id":140675,"image":"https://media.rawg.io/media/screenshots/d47/d47bd732e0e65d18c304f5689cc19f1b.jpg","width":1920,"height":1080,"is_deleted":false}]}