{"count":107048,"next":"https://api.rawg.io/api/games?key=3c73e733b66c4c38b0c30137de245589&page=2&page_size=1&search=The+Good+Life","previous":null,"results":[{"slug":"the-good-life","name":"The Good Life(2012)","playtime":3,"platforms":[{"platform":{"id":4,"name":"PC","slug":"pc"}},{"platform":{"id":1,"name":"Xbox One","slug":"xbox-one"}}],"stores":[{"store":{"id":1,"name":"Steam","slug":"steam"}},{"store":{"id":2,"name":"Xbox Store","slug":"xbox-store"}}],"released":"2014-11-21","tba":false,"background_image":"https://media.rawg.io/media/screenshots/cd7/cd7de876a3aa12ec7ccf4369d2114693.jpg","rating":1.7,"rating_top":1,"ratings":[{"id":1,"title":"skip","count":7,"percent":70.0},{"id":3,"title":"meh","count":2,"percent":20.0},{"id":4,"title":"recommended","count":1,"percent":10.0}],"ratings_count":10,"reviews_text_count":0,"added":188,"added_by_status":{"yet":4,"owned":181,"dropped":3},"metacritic":null,"suggestions_count":471,"updated":"2023-08-23T14:47:16","id":22385,"score":"78.94429","clip":null,"tags":[{"id":31,"name":"Singleplayer","slug":"singleplayer","language":"eng","games_count":233799,"image_background":"https://media.rawg.io/media/games/2ba/2bac0e87cf45e5b508f227d281c9252a.jpg"},{"id":42392,"name":"Приключение","slug":"prikliuchenie","language":"rus","games_count":42134,"image_background":"https://media.rawg.io/media/games/34b/34b1f1850a1c06fd971bc6ab3ac0ce0e.jpg"},{"id":40847,"name":"Steam Achievements","slug":"steam-achievements","language":"eng","games_count":42725,"image_background":"https://media.rawg.io/media/games/be0/be01c3d7d8795a45615da139322ca080.jpg"},{"id":42398,"name":"Инди","slug":"indi-2","language":"rus","games_count":59945,"image_background":"https://media.rawg.io/media/games/dd5/dd50d4266915d56dd5b63ae1bf72606a.jpg"},{"id":40836,"name":"Full controller support","slug":"full-controller-support","language":"eng","games_count":20204,"image_background":"https://media.rawg.io/media/games/be0/be01c3d7d8795a45615da139322ca080.jpg"},{"id":40849,"name":"Steam Cloud","slug":"steam-cloud","language":"eng","games_count":20511,"image_background":"https://media.rawg.io/media/games/713/713269608dc8f2f40f5a670a14b2de94.jpg"},{"id":7808,"name":"steam-trading-cards","slug":"steam-trading-cards","language":"eng","games_count":7568,"image_background":"https://media.rawg.io/media/games/da1/da1b267764d77221f07a4386b6548e5a.jpg"},{"id":42394,"name":"Глубокий сюжет","slug":"glubokii-siuzhet","language":"rus","games_count":14590,"image_background":"https://media.rawg.io/media/games/d1a/d1a2e99ade53494c6330a0ed945fe823.jpg"},{"id":24,"name":"RPG","slug":"rpg","language":"eng","games_count":23132,"image_background":"https://media.rawg.io/media/games/618/618c2031a07bbff6b4f611f10b6bcdbc.jpg"},{"id":42412,"name":"Ролевая игра","slug":"rolevaia-igra","language":"rus","games_count":19540,"image_background":"https://media.rawg.io/media/games/713/713269608dc8f2f40f5a670a14b2de94.jpg"},{"id":118,"name":"Story Rich","slug":"story-rich","language":"eng","games_count":23726,"image_background":"https://media.rawg.io/media/games/b8c/b8c243eaa0fbac8115e0cdccac3f91dc.jpg"},{"id":42442,"name":"Открытый мир","slug":"otkrytyi-mir","language":"rus","games_count":6384,"image_background":"https://media.rawg.io/media/games/4cf/4cfc6b7f1850590a4634b08bfab308ab.jpg"},{"id":36,"name":"Open World","slug":"open-world","language":"eng","games_count":8197,"image_background":"https://media.rawg.io/media/games/e6d/e6de699bd788497f4b52e2f41f9698f2.jpg"},{"id":42399,"name":"Казуальная игра","slug":"kazualnaia-igra","language":"rus","games_count":46054,"image_background":"https://media.rawg.io/media/games/942/9424d6bb763dc38d9378b488603c87fa.jpg"},{"id":42441,"name":"От третьего лица","slug":"ot-tretego-litsa","language":"rus","games_count":8229,"image_background":"https://media.rawg.io/media/games/d1a/d1a2e99ade53494c6330a0ed945fe823.jpg"},{"id":149,"name":"Third Person","slug":"third-person","language":"eng","games_count":12704,"image_background":"https://media.rawg.io/media/games/d69/d69810315bd7e226ea2d21f9156af629.jpg"},{"id":42413,"name":"Симулятор","slug":"simuliator","language":"rus","games_count":21635,"image_background":"https://media.rawg.io/media/games/6d3/6d33014a4ed48a19c30a77ead5a0f62e.jpg"},{"id":40850,"name":"Steam Leaderboards","slug":"steam-leaderboards","language":"eng","games_count":7436,"image_background":"https://media.rawg.io/media/games/59a/59a3ebcba3d08c51532c6ca877aff256.jpg"},{"id":6,"name":"Exploration","slug":"exploration","language":"eng","games_count":25390,"image_background":"https://media.rawg.io/media/games/5bb/5bb55ccb8205aadbb6a144cf6d8963f1.jpg"},{"id":42481,"name":"Юмор","slug":"iumor","language":"rus","games_count":6647,"image_background":"https://media.rawg.io/media/games/d69/d69810315bd7e226ea2d21f9156af629.jpg"},{"id":123,"name":"Comedy","slug":"comedy","language":"eng","games_count":13307,"image_background":"https://media.rawg.io/media/games/20a/20aa03a10cda45239fe22d035c0ebe64.jpg"},{"id":42464,"name":"Исследование","slug":"issledovanie","language":"rus","games_count":2979,"image_background":"https://media.rawg.io/media/games/b54/b54598d1d5cc31899f4f0a7e3122a7b0.jpg"},{"id":11669,"name":"stats","slug":"stats","language":"eng","games_count":5275,"image_background":"https://media.rawg.io/media/games/a92/a92272ea5cfc35b8ad6317fbd81ce0f6.jpg"},{"id":42601,"name":"Цветастая","slug":"tsvetastaia","language":"rus","games_count":16109,"image_background":"https://media.rawg.io/media/games/a50/a505bccdcfdc79970a93574c747f6e0d.jpg"},{"id":42556,"name":"Тайна","slug":"taina","language":"rus","games_count":6481,"image_background":"https://media.rawg.io/media/games/5c0/5c0dd63002cb23f804aab327d40ef119.jpg"},{"id":117,"name":"Mystery","slug":"mystery","language":"eng","games_count":14602,"image_background":"https://media.rawg.io/media/games/852/8522935d8ab27b610a254b52de0da212.jpg"},{"id":165,"name":"Colorful","slug":"colorful","language":"eng","games_count":24667,"image_background":"https://media.rawg.io/media/games/fc8/fc838d98c9b944e6a15176eabf40bee8.jpg"},{"id":571,"name":"3D","slug":"3d","language":"eng","games_count":87310,"image_background":"https://media.rawg.io/media/games/cb4/cb487ab3c54b81cb685388bab42ec848.jpeg"},{"id":42551,"name":"Менеджмент","slug":"menedzhment","language":"rus","games_count":4137,"image_background":"https://media.rawg.io/media/games/25c/25c4776ab5723d5d735d8bf617ca12d9.jpg"},{"id":218,"name":"Multiple Endings","slug":"multiple-endings","language":"eng","games_count":9780,"image_background":"https://media.rawg.io/media/games/4cf/4cfc6b7f1850590a4634b08bfab308ab.jpg"},{"id":144,"name":"Crime","slug":"crime","language":"eng","games_count":3011,"image_background":"https://media.rawg.io/media/games/e2d/e2d3f396b16dded0f841c17c9799a882.jpg"},{"id":42443,"name":"Криминал","slug":"kriminal","language":"rus","games_count":1128,"image_background":"https://media.rawg.io/media/games/960/960b601d9541cec776c5fa42a00bf6c4.jpg"},{"id":67,"name":"Management","slug":"management","language":"eng","games_count":8083,"image_background":"https://media.rawg.io/media/games/2b9/2b90a0b4cafe05eefaa2698d6613dc7f.jpg"},{"id":142,"name":"Detective","slug":"detective","language":"eng","games_count":3563,"image_background":"https://media.rawg.io/media/games/fd8/fd882c8267a44621a0de6f9cec77ae90.jpg"},{"id":42526,"name":"Детектив","slug":"detektiv","language":"rus","games_count":2127,"image_background":"https://media.rawg.io/media/games/052/052f9afc7aaeea3e2c5d46eafa92c64e.jpg"},{"id":42473,"name":"Immersive Sim","slug":"immersive-sim-2","language":"eng","games_count":3625,"image_background":"https://media.rawg.io/media/games/943/9436adc4b833d1026c3805fc4ce602b8.jpg"},{"id":774,"name":"nature","slug":"nature","language":"eng","games_count":6410,"image_background":"https://media.rawg.io/media/screenshots/1a8/1a8c6a9df256e5c59682baaa02e7e18e.jpeg"},{"id":64060,"name":"Несколько концовок","slug":"neskolko-kontsovok","language":"rus","games_count":4926,"image_background":"https://media.rawg.io/media/games/6a2/6a2e48933245e2cd3c92248c75c925e1.jpg"},{"id":326,"name":"Investigation","slug":"investigation","language":"eng","games_count":2788,"image_background":"https://media.rawg.io/media/screenshots/ff8/ff83d8f6c0224ad080c1c5c77934a43d.jpg"},{"id":626,"name":"cats","slug":"cats","language":"eng","games_count":6374,"image_background":"https://media.rawg.io/media/screenshots/f77/f77b685304e3c05087aed1d18a7b667f.jpg"},{"id":42414,"name":"Сельское хозяйство","slug":"selskoe-khoziaistvo","language":"rus","games_count":676,"image_background":"https://media.rawg.io/media/screenshots/643/643a3dd6aba644d35f2c6476ce10ef60.jpg"},{"id":58125,"name":"Иммерсивный симулятор","slug":"immersivnyi-simuliator","language":"rus","games_count":3500,"image_background":"https://media.rawg.io/media/games/882/8820b0bc5ec9c135aca22389d105b566.jpg"},{"id":58124,"name":"Природа","slug":"priroda","language":"rus","games_count":3030,"image_background":"https://media.rawg.io/media/screenshots/91d/91d1068d4c8e55019375562ada13a619.jpg"},{"id":159,"name":"Agriculture","slug":"agriculture","language":"eng","games_count":700,"image_background":"https://media.rawg.io/media/games/543/543e6c13569e47b8d31a291a80b07df2.jpg"},{"id":49960,"name":"Life Sim","slug":"life-sim-2","language":"eng","games_count":2264,"image_background":"https://media.rawg.io/media/screenshots/a39/a395e230f212465ab7710689e44626e3.jpg"},{"id":66534,"name":"Расследования","slug":"rassledovaniia","language":"rus","games_count":1883,"image_background":"https://media.rawg.io/media/screenshots/eaf/eaff05afd0b8cdec8d90667047c96dec.jpg"},{"id":58267,"name":"Симулятор жизни","slug":"simuliator-zhizni","language":"rus","games_count":2141,"image_background":"https://media.rawg.io/media/screenshots/fca/fcafe20df24266222cd9f00cf597aa93.jpg"},{"id":582,"name":"Dog","slug":"dog","language":"eng","games_count":2102,"image_background":"https://media.rawg.io/media/games/759/7598ff65521e54fc58cb4578c5f2134c.jpg"},{"id":58268,"name":"Котики","slug":"kotiki","language":"eng","games_count":1216,"image_background":"https://media.rawg.io/media/games/da8/da86a74c94d6516f31dcec888c14488f.jpg"},{"id":58676,"name":"Собаки","slug":"sobaki","language":"rus","games_count":489,"image_background":"https://media.rawg.io/media/games/a71/a7108a0074a600b9fc64ae7f9eb21ef1.jpg"}],"esrb_rating":null,"user_game":null,"reviews_count":10,"saturated_color":"0f0f0f","dominant_color":"0f0f0f","short_screenshots":[{"id":-1,"image":"https://media.rawg.io/media/screenshots/cd7/cd7de876a3aa12ec7ccf4369d2114693.jpg"},{"id":213396,"image":"https://media.rawg.io/media/screenshots/2dc/2dcc838cb4d7bb1275fbdf74a9efcc62.jpg"},{"id":213397,"image":"https://media.rawg.io/media/screenshots/adf/adf72c05b3f2bc55bc59c483d900e037.jpg"},{"id":213398,"image":"https://media.rawg.io/media/screenshots/d18/d1859e8c25584ee455237248ed6b5f69.jpg"},{"id":213399,"image":"https://media.rawg.io/media/screenshots/5ca/5ca5dcfab906dd77e61490d541917df3.jpg"},{"id":213400,"image":"https://media.rawg.io/media/screenshots/603/6032f241fdd5f4bfc8f990f6e430a6fd.jpg"},{"id":213401,"image":"https://media.rawg.io/media/screenshots/fdc/fdc4188c0f07624551d57d6e312477f5.jpg"}],"parent_platforms":[{"platform":{"id":1,"name":"PC","slug":"pc"}},{"platform":{"id":3,"name":"Xbox","slug":"xbox"}}],"genres":[{"id":40,"name":"Casual","slug":"casual"},{"id":51,"name":"Indie","slug":"indie"},{"id":5,"name":"RPG","slug":"role-playing-games-rpg"},{"id":14,"name":"Simulation","slug":"simulation"}]}],"user_platforms":false}