{"count":6,"next":"https://api.rawg.io/api/games/rpg-maker-vx-ace/screenshots?key=3c73e733b66c4c38b0c30137de245589&page=2&page_size=5","previous":null,"results":[{"id":77325,"image":"https://media.rawg.io/media/screenshots/3ef/3ef2834cd21d47b6368306637bbd040f.jpg","width":1920,"height":1080,"is_deleted":false},{"id":77326,"image":"https://media.rawg.io/media/screenshots/859/8598af9f295713edeaa622a301903930.jpg","width":1920,"height":1080,"is_deleted":false},{"id":77327,"image":"https://media.rawg.io/media/screenshots/568/568bfcf48fc915d03c9c82a9903e246f.jpg","width":1920,"height":1080,"is_deleted":false},{"id":77328,"image":"https://media.rawg.io/media/screenshots/f39/f3924d1ed9042ce0072a32e8aa57ced1.jpg","width":1920,"height":1080,"is_deleted":false},{"id":77329,"image":"https://media.rawg.io/media/screenshots/146/1461d5a5cb308473edc9a58d7f38c441.jpg","width":1920,"height":1080,"is_deleted":false}]}