{"count":5409,"next":"https://api.rawg.io/api/games?key=3c73e733b66c4c38b0c30137de245589&page=2&page_size=1&search=Leisure+Suit+Larry%3A+Reloaded","previous":null,"results":[{"slug":"leisure-suit-larry-reloaded","name":"Leisure Suit Larry: Reloaded","playtime":1,"platforms":[{"platform":{"id":4,"name":"PC","slug":"pc"}},{"platform":{"id":3,"name":"iOS","slug":"ios"}},{"platform":{"id":21,"name":"Android","slug":"android"}},{"platform":{"id":5,"name":"macOS","slug":"macos"}}],"stores":[{"store":{"id":4,"name":"App Store","slug":"apple-appstore"}},{"store":{"id":5,"name":"GOG","slug":"gog"}},{"store":{"id":8,"name":"Google Play","slug":"google-play"}}],"released":"2013-06-26","tba":false,"background_image":"https://media.rawg.io/media/screenshots/86a/86a4ad03c04825875ff2e522b9f891a9.jpeg","rating":3.24,"rating_top":4,"ratings":[{"id":4,"title":"recommended","count":8,"percent":47.06},{"id":3,"title":"meh","count":7,"percent":41.18},{"id":1,"title":"skip","count":2,"percent":11.76}],"ratings_count":16,"reviews_text_count":0,"added":94,"added_by_status":{"yet":11,"owned":53,"beaten":15,"toplay":10,"dropped":5},"metacritic":null,"suggestions_count":510,"updated":"2025-04-12T13:29:18","id":5778,"score":"127.76019","clip":null,"tags":[{"id":31,"name":"Singleplayer","slug":"singleplayer","language":"eng","games_count":238040,"image_background":"https://media.rawg.io/media/games/490/49016e06ae2103881ff6373248843069.jpg"}],"esrb_rating":null,"user_game":null,"reviews_count":17,"saturated_color":"0f0f0f","dominant_color":"0f0f0f","short_screenshots":[{"id":-1,"image":"https://media.rawg.io/media/screenshots/86a/86a4ad03c04825875ff2e522b9f891a9.jpeg"},{"id":223042,"image":"https://media.rawg.io/media/screenshots/0ab/0ab868276514ac4970cf8efa29f2d7b4_lasDfrE.jpg"},{"id":223043,"image":"https://media.rawg.io/media/screenshots/1e1/1e16b12770543a1ed526e9bbd4027db3.jpg"},{"id":223044,"image":"https://media.rawg.io/media/screenshots/952/95214ae36adadf8ef27d4142ccfadbe1.jpg"},{"id":223045,"image":"https://media.rawg.io/media/screenshots/1c4/1c470521115453b7c850880a290225c3.jpg"},{"id":223046,"image":"https://media.rawg.io/media/screenshots/cc7/cc7774eac175c6ce3cd5888700ab46ae.jpg"},{"id":223047,"image":"https://media.rawg.io/media/screenshots/69f/69f1a6f356838ab9fb5fcb8e4f7123a0.jpg"}],"parent_platforms":[{"platform":{"id":1,"name":"PC","slug":"pc"}},{"platform":{"id":4,"name":"iOS","slug":"ios"}},{"platform":{"id":8,"name":"Android","slug":"android"}},{"platform":{"id":5,"name":"Apple Macintosh","slug":"mac"}}],"genres":[{"id":3,"name":"Adventure","slug":"adventure"},{"id":7,"name":"Puzzle","slug":"puzzle"}]}],"user_platforms":false}