{"count":101214,"next":"https://api.rawg.io/api/games?key=3c73e733b66c4c38b0c30137de245589&page=2&page_size=1&search=The+witcher+3","previous":null,"results":[{"slug":"the-witcher-3-wild-hunt","name":"The Witcher 3: Wild Hunt","playtime":43,"platforms":[{"platform":{"id":4,"name":"PC","slug":"pc"}},{"platform":{"id":187,"name":"PlayStation 5","slug":"playstation5"}},{"platform":{"id":1,"name":"Xbox One","slug":"xbox-one"}},{"platform":{"id":18,"name":"PlayStation 4","slug":"playstation4"}},{"platform":{"id":186,"name":"Xbox Series S/X","slug":"xbox-series-x"}},{"platform":{"id":7,"name":"Nintendo Switch","slug":"nintendo-switch"}},{"platform":{"id":5,"name":"macOS","slug":"macos"}}],"stores":[{"store":{"id":1,"name":"Steam","slug":"steam"}},{"store":{"id":3,"name":"PlayStation Store","slug":"playstation-store"}},{"store":{"id":2,"name":"Xbox Store","slug":"xbox-store"}},{"store":{"id":5,"name":"GOG","slug":"gog"}},{"store":{"id":6,"name":"Nintendo Store","slug":"nintendo"}}],"released":"2015-05-18","tba":false,"background_image":"https://media.rawg.io/media/games/618/618c2031a07bbff6b4f611f10b6bcdbc.jpg","rating":4.64,"rating_top":5,"ratings":[{"id":5,"title":"exceptional","count":5366,"percent":76.73},{"id":4,"title":"recommended","count":1143,"percent":16.34},{"id":3,"title":"meh","count":297,"percent":4.25},{"id":1,"title":"skip","count":187,"percent":2.67}],"ratings_count":6880,"reviews_text_count":79,"added":21634,"added_by_status":{"yet":1169,"owned":12692,"beaten":5061,"toplay":831,"dropped":989,"playing":892},"metacritic":92,"suggestions_count":684,"updated":"2025-05-05T16:41:26","id":3328,"score":"41.872887","clip":null,"tags":[{"id":31,"name":"Singleplayer","slug":"singleplayer","language":"eng","games_count":239234,"image_background":"https://media.rawg.io/media/games/8cc/8cce7c0e99dcc43d66c8efd42f9d03e3.jpg"},{"id":42396,"name":"Для одного игрока","slug":"dlia-odnogo-igroka","language":"rus","games_count":61308,"image_background":"https://media.rawg.io/media/games/942/9424d6bb763dc38d9378b488603c87fa.jpg"},{"id":42417,"name":"Экшен","slug":"ekshen","language":"rus","games_count":46069,"image_background":"https://media.rawg.io/media/games/6fc/6fcf4cd3b17c288821388e6085bb0fc9.jpg"},{"id":42392,"name":"Приключение","slug":"prikliuchenie","language":"rus","games_count":44368,"image_background":"https://media.rawg.io/media/games/20a/20aa03a10cda45239fe22d035c0ebe64.jpg"},{"id":40836,"name":"Full controller support","slug":"full-controller-support","language":"eng","games_count":21435,"image_background":"https://media.rawg.io/media/games/737/737ea5662211d2e0bbd6f5989189e4f1.jpg"},{"id":13,"name":"Atmospheric","slug":"atmospheric","language":"eng","games_count":36888,"image_background":"https://media.rawg.io/media/games/942/9424d6bb763dc38d9378b488603c87fa.jpg"},{"id":42400,"name":"Атмосфера","slug":"atmosfera","language":"rus","games_count":6083,"image_background":"https://media.rawg.io/media/games/7cf/7cfc9220b401b7a300e409e539c9afd5.jpg"},{"id":42401,"name":"Отличный саундтрек","slug":"otlichnyi-saundtrek","language":"rus","games_count":4651,"image_background":"https://media.rawg.io/media/games/7a2/7a2500ee8b2c0e1ff268bb4479463dea.jpg"},{"id":42,"name":"Great Soundtrack","slug":"great-soundtrack","language":"eng","games_count":3427,"image_background":"https://media.rawg.io/media/games/b45/b45575f34285f2c4479c9a5f719d972e.jpg"},{"id":42394,"name":"Глубокий сюжет","slug":"glubokii-siuzhet","language":"rus","games_count":15704,"image_background":"https://media.rawg.io/media/games/6c5/6c55e22185876626881b76c11922b073.jpg"},{"id":24,"name":"RPG","slug":"rpg","language":"eng","games_count":24271,"image_background":"https://media.rawg.io/media/games/7cf/7cfc9220b401b7a300e409e539c9afd5.jpg"},{"id":42412,"name":"Ролевая игра","slug":"rolevaia-igra","language":"rus","games_count":20673,"image_background":"https://media.rawg.io/media/games/d69/d69810315bd7e226ea2d21f9156af629.jpg"},{"id":118,"name":"Story Rich","slug":"story-rich","language":"eng","games_count":24838,"image_background":"https://media.rawg.io/media/games/6cd/6cd653e0aaef5ff8bbd295bf4bcb12eb.jpg"},{"id":42442,"name":"Открытый мир","slug":"otkrytyi-mir","language":"rus","games_count":6731,"image_background":"https://media.rawg.io/media/games/310/3106b0e012271c5ffb16497b070be739.jpg"},{"id":36,"name":"Open World","slug":"open-world","language":"eng","games_count":8544,"image_background":"https://media.rawg.io/media/games/490/49016e06ae2103881ff6373248843069.jpg"},{"id":42435,"name":"Шедевр","slug":"shedevr","language":"rus","games_count":1059,"image_background":"https://media.rawg.io/media/games/021/021c4e21a1824d2526f925eff6324653.jpg"},{"id":42441,"name":"От третьего лица","slug":"ot-tretego-litsa","language":"rus","games_count":8897,"image_background":"https://media.rawg.io/media/games/20a/20aa03a10cda45239fe22d035c0ebe64.jpg"},{"id":149,"name":"Third Person","slug":"third-person","language":"eng","games_count":13372,"image_background":"https://media.rawg.io/media/games/7cf/7cfc9220b401b7a300e409e539c9afd5.jpg"},{"id":42480,"name":"Фэнтези","slug":"fentezi","language":"rus","games_count":14526,"image_background":"https://media.rawg.io/media/games/5be/5bec14622f6faf804a592176577c1347.jpg"},{"id":64,"name":"Fantasy","slug":"fantasy","language":"eng","games_count":30770,"image_background":"https://media.rawg.io/media/games/63f/63f0e68688cad279ed38cde931dbfcdb.jpg"},{"id":37,"name":"Sandbox","slug":"sandbox","language":"eng","games_count":7798,"image_background":"https://media.rawg.io/media/games/095/0953bf01cd4e4dd204aba85489ac9868.jpg"},{"id":97,"name":"Action RPG","slug":"action-rpg","language":"eng","games_count":8015,"image_background":"https://media.rawg.io/media/games/ee3/ee3e10193aafc3230ba1cae426967d10.jpg"},{"id":42489,"name":"Ролевой экшен","slug":"rolevoi-ekshen","language":"rus","games_count":5006,"image_background":"https://media.rawg.io/media/games/d82/d82990b9c67ba0d2d09d4e6fa88885a7.jpg"},{"id":42477,"name":"Мрачная","slug":"mrachnaia","language":"rus","games_count":6897,"image_background":"https://media.rawg.io/media/games/618/618c2031a07bbff6b4f611f10b6bcdbc.jpg"},{"id":41,"name":"Dark","slug":"dark","language":"eng","games_count":17428,"image_background":"https://media.rawg.io/media/games/4e6/4e6e8e7f50c237d76f38f3c885dae3d2.jpg"},{"id":42406,"name":"Нагота","slug":"nagota","language":"rus","games_count":7388,"image_background":"https://media.rawg.io/media/games/6cd/6cd653e0aaef5ff8bbd295bf4bcb12eb.jpg"},{"id":44,"name":"Nudity","slug":"nudity","language":"eng","games_count":7781,"image_background":"https://media.rawg.io/media/games/618/618c2031a07bbff6b4f611f10b6bcdbc.jpg"},{"id":42390,"name":"Решения с последствиями","slug":"resheniia-s-posledstviiami","language":"rus","games_count":7299,"image_background":"https://media.rawg.io/media/games/704/704f831d2d132e9614931f1c4eab9e86.jpg"},{"id":336,"name":"controller support","slug":"controller-support","language":"eng","games_count":293,"image_background":"https://media.rawg.io/media/games/f46/f466571d536f2e3ea9e815ad17177501.jpg"},{"id":145,"name":"Choices Matter","slug":"choices-matter","language":"eng","games_count":7087,"image_background":"https://media.rawg.io/media/games/ee3/ee3e10193aafc3230ba1cae426967d10.jpg"},{"id":42506,"name":"Тёмное фэнтези","slug":"tiomnoe-fentezi","language":"rus","games_count":3726,"image_background":"https://media.rawg.io/media/games/b4a/b4adf80c36e267b35acc3497ed2af19c.jpg"},{"id":42529,"name":"Для взрослых","slug":"dlia-vzroslykh","language":"rus","games_count":3857,"image_background":"https://media.rawg.io/media/games/618/618c2031a07bbff6b4f611f10b6bcdbc.jpg"},{"id":40,"name":"Dark Fantasy","slug":"dark-fantasy","language":"eng","games_count":5037,"image_background":"https://media.rawg.io/media/games/942/9424d6bb763dc38d9378b488603c87fa.jpg"},{"id":192,"name":"Mature","slug":"mature","language":"eng","games_count":4050,"image_background":"https://media.rawg.io/media/games/29c/29c6c21cc0c78cff6f45d23631cc82f4.jpg"},{"id":42391,"name":"Средневековье","slug":"srednevekove","language":"rus","games_count":4321,"image_background":"https://media.rawg.io/media/games/59a/59a3ebcba3d08c51532c6ca877aff256.jpg"},{"id":66,"name":"Medieval","slug":"medieval","language":"eng","games_count":7383,"image_background":"https://media.rawg.io/media/games/59a/59a3ebcba3d08c51532c6ca877aff256.jpg"},{"id":82,"name":"Magic","slug":"magic","language":"eng","games_count":10552,"image_background":"https://media.rawg.io/media/screenshots/6d3/6d367773c06886535620f2d7fb1cb866.jpg"},{"id":42478,"name":"Магия","slug":"magiia","language":"rus","games_count":5186,"image_background":"https://media.rawg.io/media/games/963/9639183ff27251b0b686acaa6aac0297.jpg"},{"id":218,"name":"Multiple Endings","slug":"multiple-endings","language":"eng","games_count":10366,"image_background":"https://media.rawg.io/media/games/3b5/3b56220d6038b8b1ad66c4d05ef95215.jpg"},{"id":42508,"name":"Нелинейность","slug":"nelineinost","language":"rus","games_count":1017,"image_background":"https://media.rawg.io/media/games/b28/b28a135fa6133e17b228f46902a4fda4.jpg"}],"esrb_rating":{"id":4,"name":"Mature","slug":"mature","name_en":"Mature","name_ru":"С 17 лет"},"user_game":null,"reviews_count":6993,"saturated_color":"0f0f0f","dominant_color":"0f0f0f","short_screenshots":[{"id":-1,"image":"https://media.rawg.io/media/games/618/618c2031a07bbff6b4f611f10b6bcdbc.jpg"},{"id":30336,"image":"https://media.rawg.io/media/screenshots/1ac/1ac19f31974314855ad7be266adeb500.jpg"},{"id":30337,"image":"https://media.rawg.io/media/screenshots/6a0/6a08afca95261a2fe221ea9e01d28762.jpg"},{"id":30338,"image":"https://media.rawg.io/media/screenshots/cdd/cdd31b6b4a687425a87b5ce231ac89d7.jpg"},{"id":30339,"image":"https://media.rawg.io/media/screenshots/862/862397b153221a625922d3bb66337834.jpg"},{"id":30340,"image":"https://media.rawg.io/media/screenshots/166/166787c442a45f52f4f230c33fd7d605.jpg"},{"id":30342,"image":"https://media.rawg.io/media/screenshots/f63/f6373ee614046d81503d63f167181803.jpg"}],"parent_platforms":[{"platform":{"id":1,"name":"PC","slug":"pc"}},{"platform":{"id":2,"name":"PlayStation","slug":"playstation"}},{"platform":{"id":3,"name":"Xbox","slug":"xbox"}},{"platform":{"id":5,"name":"Apple Macintosh","slug":"mac"}},{"platform":{"id":7,"name":"Nintendo","slug":"nintendo"}}],"genres":[{"id":4,"name":"Action","slug":"action"},{"id":5,"name":"RPG","slug":"role-playing-games-rpg"}]}],"user_platforms":false}