{"count":51,"next":"https://api.rawg.io/api/games?key=3c73e733b66c4c38b0c30137de245589&page=2&page_size=1&search=Metamorphosis","previous":null,"results":[{"slug":"metamorphosis-2","name":"Metamorphosis","playtime":2,"platforms":[{"platform":{"id":4,"name":"PC","slug":"pc"}},{"platform":{"id":18,"name":"PlayStation 4","slug":"playstation4"}},{"platform":{"id":7,"name":"Nintendo Switch","slug":"nintendo-switch"}}],"stores":[{"store":{"id":1,"name":"Steam","slug":"steam"}},{"store":{"id":3,"name":"PlayStation Store","slug":"playstation-store"}},{"store":{"id":5,"name":"GOG","slug":"gog"}}],"released":"2020-08-11","tba":false,"background_image":"https://media.rawg.io/media/screenshots/185/1852f6ec477a9d6b25a3395ce43b74c6.jpg","rating":3.1,"rating_top":4,"ratings":[{"id":4,"title":"recommended","count":8,"percent":40.0},{"id":3,"title":"meh","count":7,"percent":35.0},{"id":1,"title":"skip","count":4,"percent":20.0},{"id":5,"title":"exceptional","count":1,"percent":5.0}],"ratings_count":20,"reviews_text_count":0,"added":219,"added_by_status":{"yet":25,"owned":155,"beaten":9,"toplay":21,"dropped":7,"playing":2},"metacritic":null,"suggestions_count":277,"updated":"2025-04-14T14:59:30","id":297286,"score":"65.58371","clip":null,"tags":[{"id":31,"name":"Singleplayer","slug":"singleplayer","language":"eng","games_count":238404,"image_background":"https://media.rawg.io/media/games/26d/26d4437715bee60138dab4a7c8c59c92.jpg"},{"id":42396,"name":"Для одного игрока","slug":"dlia-odnogo-igroka","language":"rus","games_count":60644,"image_background":"https://media.rawg.io/media/games/942/9424d6bb763dc38d9378b488603c87fa.jpg"},{"id":42417,"name":"Экшен","slug":"ekshen","language":"rus","games_count":45747,"image_background":"https://media.rawg.io/media/games/d58/d588947d4286e7b5e0e12e1bea7d9844.jpg"},{"id":42392,"name":"Приключение","slug":"prikliuchenie","language":"rus","games_count":44021,"image_background":"https://media.rawg.io/media/games/737/737ea5662211d2e0bbd6f5989189e4f1.jpg"},{"id":42398,"name":"Инди","slug":"indi-2","language":"rus","games_count":62096,"image_background":"https://media.rawg.io/media/games/f99/f9979698c43fd84c3ab69280576dd3af.jpg"},{"id":40836,"name":"Full controller support","slug":"full-controller-support","language":"eng","games_count":21239,"image_background":"https://media.rawg.io/media/games/157/15742f2f67eacff546738e1ab5c19d20.jpg"},{"id":42400,"name":"Атмосфера","slug":"atmosfera","language":"rus","games_count":6083,"image_background":"https://media.rawg.io/media/games/b45/b45575f34285f2c4479c9a5f719d972e.jpg"},{"id":42401,"name":"Отличный саундтрек","slug":"otlichnyi-saundtrek","language":"rus","games_count":4648,"image_background":"https://media.rawg.io/media/games/6c5/6c55e22185876626881b76c11922b073.jpg"},{"id":42394,"name":"Глубокий сюжет","slug":"glubokii-siuzhet","language":"rus","games_count":15523,"image_background":"https://media.rawg.io/media/games/b7b/b7b8381707152afc7d91f5d95de70e39.jpg"},{"id":42429,"name":"От первого лица","slug":"ot-pervogo-litsa","language":"rus","games_count":13782,"image_background":"https://media.rawg.io/media/games/bc0/bc06a29ceac58652b684deefe7d56099.jpg"},{"id":42427,"name":"Шутер от первого лица","slug":"shuter-ot-pervogo-litsa","language":"rus","games_count":6182,"image_background":"https://media.rawg.io/media/games/7fa/7fa0b586293c5861ee32490e953a4996.jpg"},{"id":42482,"name":"Смешная","slug":"smeshnaia","language":"rus","games_count":11037,"image_background":"https://media.rawg.io/media/games/2ba/2bac0e87cf45e5b508f227d281c9252a.jpg"},{"id":42465,"name":"Головоломка","slug":"golovolomka","language":"rus","games_count":18773,"image_background":"https://media.rawg.io/media/games/7a2/7a2500ee8b2c0e1ff268bb4479463dea.jpg"},{"id":42463,"name":"Платформер","slug":"platformer-2","language":"rus","games_count":10093,"image_background":"https://media.rawg.io/media/games/b6b/b6b20bfc4b34e312dbc8aac53c95a348.jpg"},{"id":42464,"name":"Исследование","slug":"issledovanie","language":"rus","games_count":2979,"image_background":"https://media.rawg.io/media/games/da1/da1b267764d77221f07a4386b6548e5a.jpg"},{"id":42490,"name":"Приключенческий экшен","slug":"prikliuchencheskii-ekshen","language":"rus","games_count":11403,"image_background":"https://media.rawg.io/media/games/fc3/fc30790a3b3c738d7a271b02c1e26dc2.jpg"},{"id":42601,"name":"Цветастая","slug":"tsvetastaia","language":"rus","games_count":17233,"image_background":"https://media.rawg.io/media/games/fd7/fd794a9f0ffe816038d981b3acc3eec9.jpg"},{"id":42556,"name":"Тайна","slug":"taina","language":"rus","games_count":6950,"image_background":"https://media.rawg.io/media/games/c00/c003705c0eaed100397ae408b7b89e90.jpg"},{"id":42500,"name":"Физика","slug":"fizika","language":"rus","games_count":6448,"image_background":"https://media.rawg.io/media/games/f15/f15e1dbda32b588a981bbc6b222a4b4c.jpg"},{"id":42555,"name":"Симулятор ходьбы","slug":"simuliator-khodby","language":"rus","games_count":3657,"image_background":"https://media.rawg.io/media/games/336/336c6bd63d83cf8e59937ab8895d1240.jpg"},{"id":42468,"name":"Головоломка-платформер","slug":"golovolomka-platformer","language":"rus","games_count":4517,"image_background":"https://media.rawg.io/media/games/a92/a92272ea5cfc35b8ad6317fbd81ce0f6.jpg"},{"id":42627,"name":"Повествование","slug":"povestvovanie","language":"rus","games_count":692,"image_background":"https://media.rawg.io/media/games/cbd/cbdaa32349be63a57099669be29dc7ca.jpg"}],"esrb_rating":null,"user_game":null,"reviews_count":20,"saturated_color":"0f0f0f","dominant_color":"0f0f0f","short_screenshots":[{"id":-1,"image":"https://media.rawg.io/media/screenshots/185/1852f6ec477a9d6b25a3395ce43b74c6.jpg"},{"id":1853623,"image":"https://media.rawg.io/media/screenshots/f9b/f9b2ef07bd2cb94f67d41cd8983543b8.jpg"},{"id":1853624,"image":"https://media.rawg.io/media/screenshots/a5f/a5f5c12a0ce7fa35e75ece334d7f4bb1.jpg"},{"id":1853625,"image":"https://media.rawg.io/media/screenshots/b6d/b6d4c89463494eead6627239719d9bb8.jpg"},{"id":1853626,"image":"https://media.rawg.io/media/screenshots/977/97782260f91e6cfba3bfc1ac05a794bf.jpg"},{"id":1853627,"image":"https://media.rawg.io/media/screenshots/185/1852f6ec477a9d6b25a3395ce43b74c6.jpg"}],"parent_platforms":[{"platform":{"id":1,"name":"PC","slug":"pc"}},{"platform":{"id":2,"name":"PlayStation","slug":"playstation"}},{"platform":{"id":7,"name":"Nintendo","slug":"nintendo"}}],"genres":[{"id":51,"name":"Indie","slug":"indie"},{"id":3,"name":"Adventure","slug":"adventure"},{"id":4,"name":"Action","slug":"action"}]}],"user_platforms":false}