{"count":3803,"next":"https://api.rawg.io/api/games?key=3c73e733b66c4c38b0c30137de245589&page=2&page_size=1&search=Grand+Theft+Auto+5","previous":null,"results":[{"slug":"grand-theft-auto-v","name":"Grand Theft Auto V","playtime":74,"platforms":[{"platform":{"id":4,"name":"PC","slug":"pc"}},{"platform":{"id":187,"name":"PlayStation 5","slug":"playstation5"}},{"platform":{"id":1,"name":"Xbox One","slug":"xbox-one"}},{"platform":{"id":18,"name":"PlayStation 4","slug":"playstation4"}},{"platform":{"id":186,"name":"Xbox Series S/X","slug":"xbox-series-x"}},{"platform":{"id":14,"name":"Xbox 360","slug":"xbox360"}},{"platform":{"id":16,"name":"PlayStation 3","slug":"playstation3"}}],"stores":[{"store":{"id":1,"name":"Steam","slug":"steam"}},{"store":{"id":3,"name":"PlayStation Store","slug":"playstation-store"}},{"store":{"id":2,"name":"Xbox Store","slug":"xbox-store"}},{"store":{"id":7,"name":"Xbox 360 Store","slug":"xbox360"}},{"store":{"id":11,"name":"Epic Games","slug":"epic-games"}}],"released":"2013-09-17","tba":false,"background_image":"https://media.rawg.io/media/games/20a/20aa03a10cda45239fe22d035c0ebe64.jpg","rating":4.47,"rating_top":5,"ratings":[{"id":5,"title":"exceptional","count":4250,"percent":59.0},{"id":4,"title":"recommended","count":2356,"percent":32.71},{"id":3,"title":"meh","count":459,"percent":6.37},{"id":1,"title":"skip","count":138,"percent":1.92}],"ratings_count":7091,"reviews_text_count":64,"added":21992,"added_by_status":{"yet":553,"owned":12693,"beaten":6220,"toplay":624,"dropped":1150,"playing":752},"metacritic":92,"suggestions_count":440,"updated":"2025-05-06T15:11:10","id":3498,"score":"103.39978","clip":null,"tags":[{"id":31,"name":"Singleplayer","slug":"singleplayer","language":"eng","games_count":239234,"image_background":"https://media.rawg.io/media/games/8cc/8cce7c0e99dcc43d66c8efd42f9d03e3.jpg"},{"id":42396,"name":"Для одного игрока","slug":"dlia-odnogo-igroka","language":"rus","games_count":61308,"image_background":"https://media.rawg.io/media/games/942/9424d6bb763dc38d9378b488603c87fa.jpg"},{"id":42417,"name":"Экшен","slug":"ekshen","language":"rus","games_count":46069,"image_background":"https://media.rawg.io/media/games/6fc/6fcf4cd3b17c288821388e6085bb0fc9.jpg"},{"id":42392,"name":"Приключение","slug":"prikliuchenie","language":"rus","games_count":44368,"image_background":"https://media.rawg.io/media/games/20a/20aa03a10cda45239fe22d035c0ebe64.jpg"},{"id":40847,"name":"Steam Achievements","slug":"steam-achievements","language":"eng","games_count":45479,"image_background":"https://media.rawg.io/media/games/120/1201a40e4364557b124392ee50317b99.jpg"},{"id":7,"name":"Multiplayer","slug":"multiplayer","language":"eng","games_count":40643,"image_background":"https://media.rawg.io/media/games/b7b/b7b8381707152afc7d91f5d95de70e39.jpg"},{"id":40836,"name":"Full controller support","slug":"full-controller-support","language":"eng","games_count":21435,"image_background":"https://media.rawg.io/media/games/737/737ea5662211d2e0bbd6f5989189e4f1.jpg"},{"id":13,"name":"Atmospheric","slug":"atmospheric","language":"eng","games_count":36888,"image_background":"https://media.rawg.io/media/games/942/9424d6bb763dc38d9378b488603c87fa.jpg"},{"id":42425,"name":"Для нескольких игроков","slug":"dlia-neskolkikh-igrokov","language":"rus","games_count":11626,"image_background":"https://media.rawg.io/media/games/736/73619bd336c894d6941d926bfd563946.jpg"},{"id":42400,"name":"Атмосфера","slug":"atmosfera","language":"rus","games_count":6083,"image_background":"https://media.rawg.io/media/games/7cf/7cfc9220b401b7a300e409e539c9afd5.jpg"},{"id":42401,"name":"Отличный саундтрек","slug":"otlichnyi-saundtrek","language":"rus","games_count":4651,"image_background":"https://media.rawg.io/media/games/7a2/7a2500ee8b2c0e1ff268bb4479463dea.jpg"},{"id":42,"name":"Great Soundtrack","slug":"great-soundtrack","language":"eng","games_count":3427,"image_background":"https://media.rawg.io/media/games/b45/b45575f34285f2c4479c9a5f719d972e.jpg"},{"id":24,"name":"RPG","slug":"rpg","language":"eng","games_count":24271,"image_background":"https://media.rawg.io/media/games/7cf/7cfc9220b401b7a300e409e539c9afd5.jpg"},{"id":18,"name":"Co-op","slug":"co-op","language":"eng","games_count":13201,"image_background":"https://media.rawg.io/media/games/c6b/c6bfece1daf8d06bc0a60632ac78e5bf.jpg"},{"id":42442,"name":"Открытый мир","slug":"otkrytyi-mir","language":"rus","games_count":6731,"image_background":"https://media.rawg.io/media/games/310/3106b0e012271c5ffb16497b070be739.jpg"},{"id":36,"name":"Open World","slug":"open-world","language":"eng","games_count":8544,"image_background":"https://media.rawg.io/media/games/490/49016e06ae2103881ff6373248843069.jpg"},{"id":411,"name":"cooperative","slug":"cooperative","language":"eng","games_count":5912,"image_background":"https://media.rawg.io/media/games/dd5/dd50d4266915d56dd5b63ae1bf72606a.jpg"},{"id":42428,"name":"Шутер","slug":"shuter","language":"rus","games_count":10737,"image_background":"https://media.rawg.io/media/games/fc1/fc1307a2774506b5bd65d7e8424664a7.jpg"},{"id":42429,"name":"От первого лица","slug":"ot-pervogo-litsa","language":"rus","games_count":13966,"image_background":"https://media.rawg.io/media/games/737/737ea5662211d2e0bbd6f5989189e4f1.jpg"},{"id":8,"name":"First-Person","slug":"first-person","language":"eng","games_count":34886,"image_background":"https://media.rawg.io/media/games/73e/73eecb8909e0c39fb246f457b5d6cbbe.jpg"},{"id":42435,"name":"Шедевр","slug":"shedevr","language":"rus","games_count":1059,"image_background":"https://media.rawg.io/media/games/021/021c4e21a1824d2526f925eff6324653.jpg"},{"id":42441,"name":"От третьего лица","slug":"ot-tretego-litsa","language":"rus","games_count":8897,"image_background":"https://media.rawg.io/media/games/20a/20aa03a10cda45239fe22d035c0ebe64.jpg"},{"id":149,"name":"Third Person","slug":"third-person","language":"eng","games_count":13372,"image_background":"https://media.rawg.io/media/games/7cf/7cfc9220b401b7a300e409e539c9afd5.jpg"},{"id":42482,"name":"Смешная","slug":"smeshnaia","language":"rus","games_count":11169,"image_background":"https://media.rawg.io/media/games/20a/20aa03a10cda45239fe22d035c0ebe64.jpg"},{"id":4,"name":"Funny","slug":"funny","language":"eng","games_count":27158,"image_background":"https://media.rawg.io/media/games/af7/af7a831001c5c32c46e950cc883b8cb7.jpg"},{"id":37,"name":"Sandbox","slug":"sandbox","language":"eng","games_count":7798,"image_background":"https://media.rawg.io/media/games/095/0953bf01cd4e4dd204aba85489ac9868.jpg"},{"id":42481,"name":"Юмор","slug":"iumor","language":"rus","games_count":7147,"image_background":"https://media.rawg.io/media/games/a3c/a3c529a12c896c0ef02db5b4741de2ba.jpg"},{"id":42444,"name":"Песочница","slug":"pesochnitsa","language":"rus","games_count":5027,"image_background":"https://media.rawg.io/media/games/20a/20aa03a10cda45239fe22d035c0ebe64.jpg"},{"id":123,"name":"Comedy","slug":"comedy","language":"eng","games_count":13806,"image_background":"https://media.rawg.io/media/games/0af/0af85e8edddfa55368e47c539914a220.jpg"},{"id":42446,"name":"Шутер от третьего лица","slug":"shuter-ot-tretego-litsa","language":"rus","games_count":2484,"image_background":"https://media.rawg.io/media/games/3cf/3cff89996570cf29a10eb9cd967dcf73.jpg"},{"id":150,"name":"Third-Person Shooter","slug":"third-person-shooter","language":"eng","games_count":3875,"image_background":"https://media.rawg.io/media/games/5c0/5c0dd63002cb23f804aab327d40ef119.jpg"},{"id":62,"name":"Moddable","slug":"moddable","language":"eng","games_count":1045,"image_background":"https://media.rawg.io/media/games/a3c/a3c529a12c896c0ef02db5b4741de2ba.jpg"},{"id":42438,"name":"Поддержка модификаций","slug":"podderzhka-modifikatsii","language":"rus","games_count":856,"image_background":"https://media.rawg.io/media/games/110/1106ebafac87cc573161f1f4f16e84cf.jpeg"},{"id":42529,"name":"Для взрослых","slug":"dlia-vzroslykh","language":"rus","games_count":3857,"image_background":"https://media.rawg.io/media/games/618/618c2031a07bbff6b4f611f10b6bcdbc.jpg"},{"id":42496,"name":"Гонки","slug":"gonki","language":"rus","games_count":4296,"image_background":"https://media.rawg.io/media/games/a1c/a1cea552040aecf9414548e209f9c0d8.jpg"},{"id":144,"name":"Crime","slug":"crime","language":"eng","games_count":3089,"image_background":"https://media.rawg.io/media/games/6cc/6cc68fa183b905ac9d85efb9797776f6.jpg"},{"id":42443,"name":"Криминал","slug":"kriminal","language":"rus","games_count":1206,"image_background":"https://media.rawg.io/media/games/a9a/a9a4e45ad8e653df2295e8410b7e96fd.jpg"},{"id":62349,"name":"vr mod","slug":"vr-mod","language":"eng","games_count":17,"image_background":"https://media.rawg.io/media/screenshots/1bb/1bb3f78f0fe43b5d5ca2f3da5b638840.jpg"}],"esrb_rating":{"id":4,"name":"Mature","slug":"mature","name_en":"Mature","name_ru":"С 17 лет"},"user_game":null,"reviews_count":7203,"saturated_color":"0f0f0f","dominant_color":"0f0f0f","short_screenshots":[{"id":-1,"image":"https://media.rawg.io/media/games/20a/20aa03a10cda45239fe22d035c0ebe64.jpg"},{"id":1827221,"image":"https://media.rawg.io/media/screenshots/a7c/a7c43871a54bed6573a6a429451564ef.jpg"},{"id":1827222,"image":"https://media.rawg.io/media/screenshots/cf4/cf4367daf6a1e33684bf19adb02d16d6.jpg"},{"id":1827223,"image":"https://media.rawg.io/media/screenshots/f95/f9518b1d99210c0cae21fc09e95b4e31.jpg"},{"id":1827225,"image":"https://media.rawg.io/media/screenshots/a5c/a5c95ea539c87d5f538763e16e18fb99.jpg"},{"id":1827226,"image":"https://media.rawg.io/media/screenshots/a7e/a7e990bc574f4d34e03b5926361d1ee7.jpg"},{"id":1827227,"image":"https://media.rawg.io/media/screenshots/592/592e2501d8734b802b2a34fee2df59fa.jpg"}],"parent_platforms":[{"platform":{"id":1,"name":"PC","slug":"pc"}},{"platform":{"id":2,"name":"PlayStation","slug":"playstation"}},{"platform":{"id":3,"name":"Xbox","slug":"xbox"}}],"genres":[{"id":4,"name":"Action","slug":"action"}]}],"user_platforms":false}