{"count":5356,"next":"https://api.rawg.io/api/games?key=3c73e733b66c4c38b0c30137de245589&page=2&page_size=1&search=RPG+Maker+VX+Ace","previous":null,"results":[{"slug":"rpg-maker-vx-ace","name":"RPG Maker VX Ace","playtime":3,"platforms":[{"platform":{"id":4,"name":"PC","slug":"pc"}}],"stores":[{"store":{"id":1,"name":"Steam","slug":"steam"}}],"released":"2012-12-10","tba":false,"background_image":"https://media.rawg.io/media/screenshots/18e/18ef77d2a8ed1ddb7f1abf358a3c1ea0.jpg","rating":3.45,"rating_top":4,"ratings":[{"id":4,"title":"recommended","count":31,"percent":56.36},{"id":1,"title":"skip","count":11,"percent":20.0},{"id":5,"title":"exceptional","count":8,"percent":14.55},{"id":3,"title":"meh","count":5,"percent":9.09}],"ratings_count":55,"reviews_text_count":0,"added":1365,"added_by_status":{"yet":45,"owned":1267,"beaten":13,"toplay":1,"dropped":36,"playing":3},"metacritic":null,"suggestions_count":386,"updated":"2025-04-14T21:27:21","id":10132,"score":"88.65906","clip":null,"tags":[{"id":7808,"name":"steam-trading-cards","slug":"steam-trading-cards","language":"eng","games_count":7568,"image_background":"https://media.rawg.io/media/games/562/562553814dd54e001a541e4ee83a591c.jpg"},{"id":24,"name":"RPG","slug":"rpg","language":"eng","games_count":24180,"image_background":"https://media.rawg.io/media/games/fc1/fc1307a2774506b5bd65d7e8424664a7.jpg"},{"id":45,"name":"2D","slug":"2d","language":"eng","games_count":202217,"image_background":"https://media.rawg.io/media/games/234/23410661770ae13eac11066980834367.jpg"},{"id":64,"name":"Fantasy","slug":"fantasy","language":"eng","games_count":30681,"image_background":"https://media.rawg.io/media/games/04a/04a7e7e185fb51493bdcbe1693a8b3dc.jpg"},{"id":37,"name":"Sandbox","slug":"sandbox","language":"eng","games_count":7771,"image_background":"https://media.rawg.io/media/games/713/713269608dc8f2f40f5a670a14b2de94.jpg"},{"id":122,"name":"Pixel Graphics","slug":"pixel-graphics","language":"eng","games_count":96691,"image_background":"https://media.rawg.io/media/games/9fa/9fa63622543e5d4f6d99aa9d73b043de.jpg"},{"id":40852,"name":"Steam Workshop","slug":"steam-workshop","language":"eng","games_count":1654,"image_background":"https://media.rawg.io/media/games/dd5/dd50d4266915d56dd5b63ae1bf72606a.jpg"},{"id":134,"name":"Anime","slug":"anime","language":"eng","games_count":15394,"image_background":"https://media.rawg.io/media/games/c40/c40f9f0a3d1b4601a7a44d230c95f126.jpg"},{"id":233,"name":"JRPG","slug":"jrpg","language":"eng","games_count":4828,"image_background":"https://media.rawg.io/media/games/3ea/3ea0e57ede873970c0f1130e30d88749.jpg"},{"id":86,"name":"Education","slug":"education","language":"eng","games_count":3395,"image_background":"https://media.rawg.io/media/games/702/7020d1319d09e0c6a840aa08c5ce120f.jpg"},{"id":143,"name":"RPGMaker","slug":"rpgmaker","language":"eng","games_count":1434,"image_background":"https://media.rawg.io/media/games/01a/01a74b440fba4dce445cc2ff11b99220.jpg"},{"id":260,"name":"GameMaker","slug":"gamemaker","language":"eng","games_count":7977,"image_background":"https://media.rawg.io/media/screenshots/213/213a68b31610ab16829d2707f0a6387e.jpg"},{"id":228,"name":"Programming","slug":"programming","language":"eng","games_count":1624,"image_background":"https://media.rawg.io/media/screenshots/0a1/0a1fc59699dfe8637b9fd20bbef70c63.jpg"},{"id":94,"name":"Design & Illustration","slug":"design-illustration","language":"eng","games_count":677,"image_background":"https://media.rawg.io/media/games/bef/bef5fbb7d48149d9a3c7692c7e7c5c6a.jpg"},{"id":156,"name":"Software","slug":"software","language":"eng","games_count":415,"image_background":"https://media.rawg.io/media/games/ad3/ad32f8319a72bfec3404f9b0b8b119da.jpg"},{"id":92,"name":"Game Development","slug":"game-development","language":"eng","games_count":346,"image_background":"https://media.rawg.io/media/games/7c1/7c19092de1228fbd0dc4cbfb897a14a2.jpg"},{"id":267,"name":"Web Publishing","slug":"web-publishing","language":"eng","games_count":54,"image_background":"https://media.rawg.io/media/screenshots/6cd/6cd13ed3dcb6b44b8bc995850f2861e6.jpg"}],"esrb_rating":null,"user_game":null,"reviews_count":55,"saturated_color":"0f0f0f","dominant_color":"0f0f0f","short_screenshots":[{"id":-1,"image":"https://media.rawg.io/media/screenshots/18e/18ef77d2a8ed1ddb7f1abf358a3c1ea0.jpg"},{"id":77325,"image":"https://media.rawg.io/media/screenshots/3ef/3ef2834cd21d47b6368306637bbd040f.jpg"},{"id":77326,"image":"https://media.rawg.io/media/screenshots/859/8598af9f295713edeaa622a301903930.jpg"},{"id":77327,"image":"https://media.rawg.io/media/screenshots/568/568bfcf48fc915d03c9c82a9903e246f.jpg"},{"id":77328,"image":"https://media.rawg.io/media/screenshots/f39/f3924d1ed9042ce0072a32e8aa57ced1.jpg"},{"id":77329,"image":"https://media.rawg.io/media/screenshots/146/1461d5a5cb308473edc9a58d7f38c441.jpg"},{"id":77330,"image":"https://media.rawg.io/media/screenshots/54e/54e6d1272fda547c745f355cc789f572.jpg"}],"parent_platforms":[{"platform":{"id":1,"name":"PC","slug":"pc"}}],"genres":[]}],"user_platforms":false}