{"count":6,"next":"https://api.rawg.io/api/games/axis-game-factorys-agfpro-v3/screenshots?key=3c73e733b66c4c38b0c30137de245589&page=2&page_size=5","previous":null,"results":[{"id":92265,"image":"https://media.rawg.io/media/screenshots/e47/e47bef8b02dfab86df40e604168c93c6.jpg","width":1080,"height":720,"is_deleted":false},{"id":92266,"image":"https://media.rawg.io/media/screenshots/7f8/7f8bc5e7a76fc60c78e19f75fa51643e.jpg","width":1080,"height":720,"is_deleted":false},{"id":92267,"image":"https://media.rawg.io/media/screenshots/f59/f59579b9ff64d8f9233ec41c2ae792e4.jpg","width":1080,"height":720,"is_deleted":false},{"id":92268,"image":"https://media.rawg.io/media/screenshots/9fa/9fa0e72348ad546e8903089496621e50.jpg","width":1080,"height":720,"is_deleted":false},{"id":92269,"image":"https://media.rawg.io/media/screenshots/9e2/9e22491bc863f5ff7388a614155f261a.jpg","width":1080,"height":720,"is_deleted":false}]}