{"count":2305,"next":"https://api.rawg.io/api/games?key=3c73e733b66c4c38b0c30137de245589&page=2&page_size=1&search=Dotage","previous":null,"results":[{"slug":"dotage","name":"dotAGE","playtime":0,"platforms":[{"platform":{"id":4,"name":"PC","slug":"pc"}},{"platform":{"id":5,"name":"macOS","slug":"macos"}},{"platform":{"id":6,"name":"Linux","slug":"linux"}}],"stores":[{"store":{"id":1,"name":"Steam","slug":"steam"}},{"store":{"id":5,"name":"GOG","slug":"gog"}}],"released":"2023-10-03","tba":false,"background_image":"https://media.rawg.io/media/screenshots/65c/65c7957783a9a438dd81cf03d3860081.jpg","rating":0.0,"rating_top":0,"ratings":[{"id":5,"title":"exceptional","count":1,"percent":50.0},{"id":3,"title":"meh","count":1,"percent":50.0}],"ratings_count":2,"reviews_text_count":0,"added":5,"added_by_status":{"owned":1,"beaten":2,"toplay":2},"metacritic":null,"suggestions_count":177,"updated":"2024-10-18T18:20:22","id":975470,"score":"48.19328","clip":null,"tags":[],"esrb_rating":null,"user_game":null,"reviews_count":2,"community_rating":0,"saturated_color":"0f0f0f","dominant_color":"0f0f0f","short_screenshots":[{"id":-1,"image":"https://media.rawg.io/media/screenshots/65c/65c7957783a9a438dd81cf03d3860081.jpg"},{"id":3995439,"image":"https://media.rawg.io/media/screenshots/182/182bfbd877621ecf9a51546cf151ec3d.jpg"},{"id":3995440,"image":"https://media.rawg.io/media/screenshots/ceb/ceb100d9b73d614d77947c0d3da2ed1f.jpg"},{"id":3995441,"image":"https://media.rawg.io/media/screenshots/507/50793bae31f7f8006c5f4a22d845e924.jpg"},{"id":3995442,"image":"https://media.rawg.io/media/screenshots/7b7/7b787038fc1cbaf1ca409b81cf1d47dd.jpg"},{"id":3995443,"image":"https://media.rawg.io/media/screenshots/65c/65c7957783a9a438dd81cf03d3860081.jpg"}],"parent_platforms":[{"platform":{"id":1,"name":"PC","slug":"pc"}},{"platform":{"id":5,"name":"Apple Macintosh","slug":"mac"}},{"platform":{"id":6,"name":"Linux","slug":"linux"}}],"genres":[{"id":10,"name":"Strategy","slug":"strategy"},{"id":28,"name":"Board Games","slug":"board-games"}]}],"user_platforms":false}