{"count":1035,"next":"https://api.rawg.io/api/games?key=3c73e733b66c4c38b0c30137de245589&page=2&page_size=1&search=dota","previous":null,"results":[{"slug":"dota","name":"Dota","playtime":0,"platforms":[{"platform":{"id":4,"name":"PC","slug":"pc"}}],"stores":null,"released":"2003-12-27","tba":false,"background_image":"https://media.rawg.io/media/screenshots/beb/bebd562efc40f845f639bf741f9f894a.jpg","rating":0.0,"rating_top":4,"ratings":[{"id":4,"title":"recommended","count":3,"percent":60.0},{"id":5,"title":"exceptional","count":2,"percent":40.0}],"ratings_count":5,"reviews_text_count":0,"added":7,"added_by_status":{"owned":1,"beaten":2,"dropped":4},"metacritic":null,"suggestions_count":309,"updated":"2025-04-08T14:45:43","id":984633,"score":"45.85675","clip":null,"tags":[],"esrb_rating":null,"user_game":null,"reviews_count":5,"saturated_color":"0f0f0f","dominant_color":"0f0f0f","short_screenshots":[{"id":-1,"image":"https://media.rawg.io/media/screenshots/beb/bebd562efc40f845f639bf741f9f894a.jpg"},{"id":4062664,"image":"https://media.rawg.io/media/screenshots/377/377b76a78a7b95df3e13bc50687b788d.jpg"},{"id":4062665,"image":"https://media.rawg.io/media/screenshots/433/4336716870bc4246a2489b71e97306c6.JPG"},{"id":4062666,"image":"https://media.rawg.io/media/screenshots/bd8/bd81a7360f60f083a6d14792a2acb145.jpg"},{"id":4062667,"image":"https://media.rawg.io/media/screenshots/0b9/0b911a0a9817781235ef793bd2391549.jpg"},{"id":4062668,"image":"https://media.rawg.io/media/screenshots/beb/bebd562efc40f845f639bf741f9f894a.jpg"}],"parent_platforms":[{"platform":{"id":1,"name":"PC","slug":"pc"}}],"genres":[{"id":10,"name":"Strategy","slug":"strategy"},{"id":5,"name":"RPG","slug":"role-playing-games-rpg"}]}],"user_platforms":false}