{"count":66750,"next":"https://api.rawg.io/api/games?key=3c73e733b66c4c38b0c30137de245589&page=2&page_size=1&search=Axis+Game+Factory%27s+AGFPRO+v3+and+Premium+Bundle","previous":null,"results":[{"slug":"axis-game-factorys-agfpro-v3","name":"Axis Game Factory's AGFPRO v3","playtime":1,"platforms":[{"platform":{"id":4,"name":"PC","slug":"pc"}},{"platform":{"id":5,"name":"macOS","slug":"macos"}},{"platform":{"id":6,"name":"Linux","slug":"linux"}}],"stores":[{"store":{"id":1,"name":"Steam","slug":"steam"}}],"released":"2013-11-19","tba":false,"background_image":"https://media.rawg.io/media/screenshots/ad6/ad683211916758f37ddf0bb382001cdb.jpg","rating":2.0,"rating_top":1,"ratings":[{"id":1,"title":"skip","count":8,"percent":53.33},{"id":3,"title":"meh","count":6,"percent":40.0},{"id":4,"title":"recommended","count":1,"percent":6.67}],"ratings_count":15,"reviews_text_count":0,"added":535,"added_by_status":{"yet":13,"owned":513,"beaten":1,"toplay":1,"dropped":7},"metacritic":null,"suggestions_count":356,"updated":"2025-04-14T21:28:53","id":11366,"score":"95.16292","clip":null,"tags":[{"id":37,"name":"Sandbox","slug":"sandbox","language":"eng","games_count":7728,"image_background":"https://media.rawg.io/media/games/490/49016e06ae2103881ff6373248843069.jpg"},{"id":40838,"name":"Includes level editor","slug":"includes-level-editor","language":"eng","games_count":2043,"image_background":"https://media.rawg.io/media/games/009/009e4e84975d6a60173ec1199db25aa3.jpg"},{"id":86,"name":"Education","slug":"education","language":"eng","games_count":3374,"image_background":"https://media.rawg.io/media/screenshots/a5e/a5eb5de9041397ca0f8b933c96a593b9.jpg"},{"id":173,"name":"Utilities","slug":"utilities","language":"eng","games_count":437,"image_background":"https://media.rawg.io/media/screenshots/4a1/4a1a732c22057555dd944fc73de275c4.jpg"},{"id":94,"name":"Design & Illustration","slug":"design-illustration","language":"eng","games_count":674,"image_background":"https://media.rawg.io/media/screenshots/49d/49dae660a0fc843b23d63af8ce34e33c.jpg"},{"id":95,"name":"Animation & Modeling","slug":"animation-modeling","language":"eng","games_count":306,"image_background":"https://media.rawg.io/media/games/48c/48cb04ca483be865e3a83119c94e6097.jpg"},{"id":92,"name":"Game Development","slug":"game-development","language":"eng","games_count":346,"image_background":"https://media.rawg.io/media/games/7c1/7c19092de1228fbd0dc4cbfb897a14a2.jpg"},{"id":261,"name":"Software Training","slug":"software-training","language":"eng","games_count":70,"image_background":"https://media.rawg.io/media/screenshots/d31/d31390de1e10bbc62efb03c2f57d27bd.jpg"}],"esrb_rating":null,"user_game":null,"reviews_count":15,"saturated_color":"0f0f0f","dominant_color":"0f0f0f","short_screenshots":[{"id":-1,"image":"https://media.rawg.io/media/screenshots/ad6/ad683211916758f37ddf0bb382001cdb.jpg"},{"id":92265,"image":"https://media.rawg.io/media/screenshots/e47/e47bef8b02dfab86df40e604168c93c6.jpg"},{"id":92266,"image":"https://media.rawg.io/media/screenshots/7f8/7f8bc5e7a76fc60c78e19f75fa51643e.jpg"},{"id":92267,"image":"https://media.rawg.io/media/screenshots/f59/f59579b9ff64d8f9233ec41c2ae792e4.jpg"},{"id":92268,"image":"https://media.rawg.io/media/screenshots/9fa/9fa0e72348ad546e8903089496621e50.jpg"},{"id":92269,"image":"https://media.rawg.io/media/screenshots/9e2/9e22491bc863f5ff7388a614155f261a.jpg"},{"id":92270,"image":"https://media.rawg.io/media/screenshots/eb7/eb7544b087f367c3248a5c17bd58d924.jpg"}],"parent_platforms":[{"platform":{"id":1,"name":"PC","slug":"pc"}},{"platform":{"id":5,"name":"Apple Macintosh","slug":"mac"}},{"platform":{"id":6,"name":"Linux","slug":"linux"}}],"genres":[{"id":34,"name":"Educational","slug":"educational"}]}],"user_platforms":false}