{"count":2634,"next":"https://api.rawg.io/api/games?key=3c73e733b66c4c38b0c30137de245589&page=2&page_size=1&search=Anno+2070","previous":null,"results":[{"slug":"anno-2070","name":"Anno 2070","playtime":11,"platforms":[{"platform":{"id":4,"name":"PC","slug":"pc"}}],"stores":[{"store":{"id":1,"name":"Steam","slug":"steam"}},{"store":{"id":11,"name":"Epic Games","slug":"epic-games"}}],"released":"2011-11-17","tba":false,"background_image":"https://media.rawg.io/media/games/9ae/9ae37c55143614798f919ce8e8eb94aa.jpg","rating":3.83,"rating_top":4,"ratings":[{"id":4,"title":"recommended","count":78,"percent":49.06},{"id":3,"title":"meh","count":38,"percent":23.9},{"id":5,"title":"exceptional","count":35,"percent":22.01},{"id":1,"title":"skip","count":8,"percent":5.03}],"ratings_count":157,"reviews_text_count":0,"added":1274,"added_by_status":{"yet":56,"owned":1016,"beaten":76,"toplay":27,"dropped":93,"playing":6},"metacritic":83,"suggestions_count":498,"updated":"2025-04-27T15:15:20","id":17777,"score":"74.44875","clip":null,"tags":[{"id":31,"name":"Singleplayer","slug":"singleplayer","language":"eng","games_count":238777,"image_background":"https://media.rawg.io/media/games/8cc/8cce7c0e99dcc43d66c8efd42f9d03e3.jpg"},{"id":42396,"name":"Для одного игрока","slug":"dlia-odnogo-igroka","language":"rus","games_count":60945,"image_background":"https://media.rawg.io/media/games/b45/b45575f34285f2c4479c9a5f719d972e.jpg"},{"id":7,"name":"Multiplayer","slug":"multiplayer","language":"eng","games_count":40575,"image_background":"https://media.rawg.io/media/games/b8c/b8c243eaa0fbac8115e0cdccac3f91dc.jpg"},{"id":42425,"name":"Для нескольких игроков","slug":"dlia-neskolkikh-igrokov","language":"rus","games_count":11576,"image_background":"https://media.rawg.io/media/games/d0f/d0f91fe1d92332147e5db74e207cfc7a.jpg"},{"id":7808,"name":"steam-trading-cards","slug":"steam-trading-cards","language":"eng","games_count":7568,"image_background":"https://media.rawg.io/media/games/562/562553814dd54e001a541e4ee83a591c.jpg"},{"id":42401,"name":"Отличный саундтрек","slug":"otlichnyi-saundtrek","language":"rus","games_count":4649,"image_background":"https://media.rawg.io/media/games/b45/b45575f34285f2c4479c9a5f719d972e.jpg"},{"id":42,"name":"Great Soundtrack","slug":"great-soundtrack","language":"eng","games_count":3425,"image_background":"https://media.rawg.io/media/games/b45/b45575f34285f2c4479c9a5f719d972e.jpg"},{"id":42394,"name":"Глубокий сюжет","slug":"glubokii-siuzhet","language":"rus","games_count":15597,"image_background":"https://media.rawg.io/media/games/b8c/b8c243eaa0fbac8115e0cdccac3f91dc.jpg"},{"id":18,"name":"Co-op","slug":"co-op","language":"eng","games_count":13165,"image_background":"https://media.rawg.io/media/games/2ba/2bac0e87cf45e5b508f227d281c9252a.jpg"},{"id":118,"name":"Story Rich","slug":"story-rich","language":"eng","games_count":24731,"image_background":"https://media.rawg.io/media/games/7a2/7a2500ee8b2c0e1ff268bb4479463dea.jpg"},{"id":42421,"name":"Стратегия","slug":"strategiia","language":"rus","games_count":22092,"image_background":"https://media.rawg.io/media/games/55e/55ee6432ac2bf224610fa17e4c652107.jpg"},{"id":411,"name":"cooperative","slug":"cooperative","language":"eng","games_count":5889,"image_background":"https://media.rawg.io/media/games/20a/20aa03a10cda45239fe22d035c0ebe64.jpg"},{"id":42423,"name":"Научная фантастика","slug":"nauchnaia-fantastika","language":"rus","games_count":9694,"image_background":"https://media.rawg.io/media/games/bc0/bc06a29ceac58652b684deefe7d56099.jpg"},{"id":32,"name":"Sci-fi","slug":"sci-fi","language":"eng","games_count":20791,"image_background":"https://media.rawg.io/media/games/26d/26d4437715bee60138dab4a7c8c59c92.jpg"},{"id":42413,"name":"Симулятор","slug":"simuliator","language":"rus","games_count":22900,"image_background":"https://media.rawg.io/media/games/0bd/0bd5646a3d8ee0ac3314bced91ea306d.jpg"},{"id":9,"name":"Online Co-Op","slug":"online-co-op","language":"eng","games_count":6745,"image_background":"https://media.rawg.io/media/games/34b/34b1f1850a1c06fd971bc6ab3ac0ce0e.jpg"},{"id":37,"name":"Sandbox","slug":"sandbox","language":"eng","games_count":7771,"image_background":"https://media.rawg.io/media/games/713/713269608dc8f2f40f5a670a14b2de94.jpg"},{"id":42444,"name":"Песочница","slug":"pesochnitsa","language":"rus","games_count":5000,"image_background":"https://media.rawg.io/media/games/48e/48e63bbddeddbe9ba81942772b156664.jpg"},{"id":42433,"name":"Совместная игра по сети","slug":"sovmestnaia-igra-po-seti","language":"rus","games_count":1226,"image_background":"https://media.rawg.io/media/games/1bd/1bd2657b81eb0c99338120ad444b24ff.jpg"},{"id":167,"name":"Futuristic","slug":"futuristic","language":"eng","games_count":6249,"image_background":"https://media.rawg.io/media/games/00d/00d374f12a3ab5f96c500a2cfa901e15.jpg"},{"id":42553,"name":"Строительство","slug":"stroitelstvo","language":"rus","games_count":4279,"image_background":"https://media.rawg.io/media/games/a88/a886c37bf112d009e318b106db9d420a.jpg"},{"id":42503,"name":"Стратегия в реальном времени","slug":"strategiia-v-realnom-vremeni","language":"rus","games_count":2234,"image_background":"https://media.rawg.io/media/screenshots/4d9/4d9afae02fdf2896569b1c7bfeabb8c1.jpg"},{"id":39,"name":"Building","slug":"building","language":"eng","games_count":6916,"image_background":"https://media.rawg.io/media/games/48c/48cb04ca483be865e3a83119c94e6097.jpg"},{"id":168,"name":"RTS","slug":"rts","language":"eng","games_count":2688,"image_background":"https://media.rawg.io/media/games/c35/c354856af9151dc63844be4f9843d2c2.jpg"},{"id":42451,"name":"Будущее","slug":"budushchee","language":"rus","games_count":4385,"image_background":"https://media.rawg.io/media/games/49c/49c3dfa4ce2f6f140cc4825868e858cb.jpg"},{"id":42551,"name":"Менеджмент","slug":"menedzhment","language":"rus","games_count":4504,"image_background":"https://media.rawg.io/media/games/ea6/ea6d85ea0239943ff31a86097fb3fbc3.jpg"},{"id":67,"name":"Management","slug":"management","language":"eng","games_count":8452,"image_background":"https://media.rawg.io/media/games/2b9/2b90a0b4cafe05eefaa2698d6613dc7f.jpg"},{"id":42631,"name":"Управление ресурсами","slug":"upravlenie-resursami","language":"rus","games_count":3359,"image_background":"https://media.rawg.io/media/screenshots/825/8259c21da3dcb834daec3675a4dcebd3.jpg"},{"id":42521,"name":"Экономика","slug":"ekonomika","language":"rus","games_count":1982,"image_background":"https://media.rawg.io/media/games/d49/d4974f5eb9e6c47794f681f149280d9d.jpg"},{"id":147,"name":"Resource Management","slug":"resource-management","language":"eng","games_count":3201,"image_background":"https://media.rawg.io/media/games/25c/25c4776ab5723d5d735d8bf617ca12d9.jpg"},{"id":195,"name":"Economy","slug":"economy","language":"eng","games_count":2809,"image_background":"https://media.rawg.io/media/games/d49/d4974f5eb9e6c47794f681f149280d9d.jpg"},{"id":42504,"name":"Градостроительный симулятор","slug":"gradostroitelnyi-simuliator","language":"rus","games_count":473,"image_background":"https://media.rawg.io/media/games/ea6/ea6d85ea0239943ff31a86097fb3fbc3.jpg"},{"id":213,"name":"City Builder","slug":"city-builder","language":"eng","games_count":2929,"image_background":"https://media.rawg.io/media/screenshots/c8a/c8a231fb194a781ef2228505b1c1f0fb.jpg"},{"id":212,"name":"4X","slug":"4x","language":"eng","games_count":638,"image_background":"https://media.rawg.io/media/screenshots/85c/85c91c5064d2cdd56a949c8008868318.jpg"},{"id":42563,"name":"В реальном времени","slug":"v-realnom-vremeni","language":"rus","games_count":356,"image_background":"https://media.rawg.io/media/screenshots/b36/b36e7eef6b9d72c0f1583218e9931004.jpg"},{"id":210,"name":"Real-Time","slug":"real-time","language":"eng","games_count":1226,"image_background":"https://media.rawg.io/media/games/11b/11b81edff7f45024e36b88e880d86585.jpg"},{"id":245,"name":"Trading","slug":"trading","language":"eng","games_count":1339,"image_background":"https://media.rawg.io/media/screenshots/2af/2aff127d5caa7985bfdb5106f75052fe.jpg"},{"id":42498,"name":"Обмен","slug":"obmen","language":"rus","games_count":303,"image_background":"https://media.rawg.io/media/screenshots/364/3640726eff1d5c28eeb56f37b31cc339.jpg"}],"esrb_rating":null,"user_game":null,"reviews_count":159,"saturated_color":"0f0f0f","dominant_color":"0f0f0f","short_screenshots":[{"id":-1,"image":"https://media.rawg.io/media/games/9ae/9ae37c55143614798f919ce8e8eb94aa.jpg"},{"id":163475,"image":"https://media.rawg.io/media/screenshots/4c6/4c659381c45735508b109ebf610ded2c.jpg"},{"id":163476,"image":"https://media.rawg.io/media/screenshots/0f3/0f3107d02c231ccc5e2dc7df7d51ed35.jpg"},{"id":163477,"image":"https://media.rawg.io/media/screenshots/88f/88f1bb3d3eea2f3ed44f749834eb121d.jpg"},{"id":163478,"image":"https://media.rawg.io/media/screenshots/b5a/b5a9ece5dbefda360db9c6a0e3cf7583.jpg"},{"id":163479,"image":"https://media.rawg.io/media/screenshots/1fd/1fd43092eff9f1db63756a51f3f754eb.jpg"},{"id":163480,"image":"https://media.rawg.io/media/screenshots/44f/44fd8e1f25b14987ef0b0cde7eec6cd8.jpg"}],"parent_platforms":[{"platform":{"id":1,"name":"PC","slug":"pc"}}],"genres":[{"id":10,"name":"Strategy","slug":"strategy"}]}],"user_platforms":false}