{"count":6,"next":"https://api.rawg.io/api/games/the-good-life/screenshots?key=3c73e733b66c4c38b0c30137de245589&page=2&page_size=5","previous":null,"results":[{"id":213396,"image":"https://media.rawg.io/media/screenshots/2dc/2dcc838cb4d7bb1275fbdf74a9efcc62.jpg","width":1920,"height":1080,"is_deleted":false},{"id":213397,"image":"https://media.rawg.io/media/screenshots/adf/adf72c05b3f2bc55bc59c483d900e037.jpg","width":1280,"height":720,"is_deleted":false},{"id":213398,"image":"https://media.rawg.io/media/screenshots/d18/d1859e8c25584ee455237248ed6b5f69.jpg","width":1280,"height":720,"is_deleted":false},{"id":213399,"image":"https://media.rawg.io/media/screenshots/5ca/5ca5dcfab906dd77e61490d541917df3.jpg","width":1280,"height":720,"is_deleted":false},{"id":213400,"image":"https://media.rawg.io/media/screenshots/603/6032f241fdd5f4bfc8f990f6e430a6fd.jpg","width":1280,"height":720,"is_deleted":false}]}