{"count":6,"next":"https://api.rawg.io/api/games/grand-theft-auto-v/screenshots?key=3c73e733b66c4c38b0c30137de245589&page=2&page_size=5","previous":null,"results":[{"id":1827221,"image":"https://media.rawg.io/media/screenshots/a7c/a7c43871a54bed6573a6a429451564ef.jpg","width":1920,"height":1080,"is_deleted":false},{"id":1827222,"image":"https://media.rawg.io/media/screenshots/cf4/cf4367daf6a1e33684bf19adb02d16d6.jpg","width":1920,"height":1080,"is_deleted":false},{"id":1827223,"image":"https://media.rawg.io/media/screenshots/f95/f9518b1d99210c0cae21fc09e95b4e31.jpg","width":1920,"height":1080,"is_deleted":false},{"id":1827225,"image":"https://media.rawg.io/media/screenshots/a5c/a5c95ea539c87d5f538763e16e18fb99.jpg","width":1920,"height":1080,"is_deleted":false},{"id":1827226,"image":"https://media.rawg.io/media/screenshots/a7e/a7e990bc574f4d34e03b5926361d1ee7.jpg","width":1920,"height":1080,"is_deleted":false}]}