{"count":657,"next":"https://api.rawg.io/api/games?key=3c73e733b66c4c38b0c30137de245589&page=2&page_size=1&search=Unstoppable+Gorg","previous":null,"results":[{"slug":"unstoppable-gorg","name":"Unstoppable Gorg","playtime":1,"platforms":[{"platform":{"id":4,"name":"PC","slug":"pc"}},{"platform":{"id":3,"name":"iOS","slug":"ios"}},{"platform":{"id":5,"name":"macOS","slug":"macos"}}],"stores":[{"store":{"id":1,"name":"Steam","slug":"steam"}},{"store":{"id":4,"name":"App Store","slug":"apple-appstore"}}],"released":"2012-01-19","tba":false,"background_image":"https://media.rawg.io/media/screenshots/462/4627cd7641ab222926970f7540b40743.jpeg","rating":2.31,"rating_top":3,"ratings":[{"id":3,"title":"meh","count":7,"percent":53.85},{"id":1,"title":"skip","count":5,"percent":38.46},{"id":4,"title":"recommended","count":1,"percent":7.69}],"ratings_count":13,"reviews_text_count":0,"added":388,"added_by_status":{"yet":9,"owned":369,"beaten":2,"toplay":1,"dropped":7},"metacritic":73,"suggestions_count":345,"updated":"2019-10-22T14:28:48","id":6320,"score":"80.08598","clip":null,"tags":[{"id":31,"name":"Singleplayer","slug":"singleplayer","language":"eng","games_count":238777,"image_background":"https://media.rawg.io/media/games/8cc/8cce7c0e99dcc43d66c8efd42f9d03e3.jpg"},{"id":42417,"name":"Экшен","slug":"ekshen","language":"rus","games_count":45882,"image_background":"https://media.rawg.io/media/games/618/618c2031a07bbff6b4f611f10b6bcdbc.jpg"},{"id":40847,"name":"Steam Achievements","slug":"steam-achievements","language":"eng","games_count":45242,"image_background":"https://media.rawg.io/media/games/198/1988a337305e008b41d7f536ce9b73f6.jpg"},{"id":42398,"name":"Инди","slug":"indi-2","language":"rus","games_count":62263,"image_background":"https://media.rawg.io/media/games/5be/5bec14622f6faf804a592176577c1347.jpg"},{"id":40849,"name":"Steam Cloud","slug":"steam-cloud","language":"eng","games_count":21933,"image_background":"https://media.rawg.io/media/games/be0/be01c3d7d8795a45615da139322ca080.jpg"},{"id":42421,"name":"Стратегия","slug":"strategiia","language":"rus","games_count":22092,"image_background":"https://media.rawg.io/media/games/55e/55ee6432ac2bf224610fa17e4c652107.jpg"},{"id":42399,"name":"Казуальная игра","slug":"kazualnaia-igra","language":"rus","games_count":48619,"image_background":"https://media.rawg.io/media/games/852/8522935d8ab27b610a254b52de0da212.jpg"},{"id":42423,"name":"Научная фантастика","slug":"nauchnaia-fantastika","language":"rus","games_count":9694,"image_background":"https://media.rawg.io/media/games/bc0/bc06a29ceac58652b684deefe7d56099.jpg"},{"id":32,"name":"Sci-fi","slug":"sci-fi","language":"eng","games_count":20791,"image_background":"https://media.rawg.io/media/games/26d/26d4437715bee60138dab4a7c8c59c92.jpg"},{"id":40850,"name":"Steam Leaderboards","slug":"steam-leaderboards","language":"eng","games_count":7749,"image_background":"https://media.rawg.io/media/games/7ac/7aca7ccf0e70cd0974cb899ab9e5158e.jpg"},{"id":25,"name":"Space","slug":"space","language":"eng","games_count":43615,"image_background":"https://media.rawg.io/media/games/ebd/ebdbb7eb52bd58b0e7fa4538d9757b60.jpg"},{"id":42422,"name":"Космос","slug":"kosmos-2","language":"rus","games_count":4950,"image_background":"https://media.rawg.io/media/games/bd2/bd2cc7714e0b9b1adad1ba1b2400d436.jpg"},{"id":172,"name":"Aliens","slug":"aliens","language":"eng","games_count":7220,"image_background":"https://media.rawg.io/media/games/ebd/ebdbb7eb52bd58b0e7fa4538d9757b60.jpg"},{"id":42485,"name":"Инопланетяне","slug":"inoplanetiane","language":"rus","games_count":2287,"image_background":"https://media.rawg.io/media/games/9bf/9bfac18ff678f41a4674250fa0e04a52.jpg"},{"id":42533,"name":"Башенная защита","slug":"bashennaia-zashchita","language":"rus","games_count":2341,"image_background":"https://media.rawg.io/media/screenshots/88c/88c66f471e0b28d3f6711f162ef0848e_IOHyhbU.jpg"},{"id":65,"name":"Tower Defense","slug":"tower-defense","language":"eng","games_count":7701,"image_background":"https://media.rawg.io/media/screenshots/968/968df3dbb85d2d7aa96ace33a7b2c9af.jpg"},{"id":60,"name":"Touch-Friendly","slug":"touch-friendly","language":"eng","games_count":1682,"image_background":"https://media.rawg.io/media/screenshots/db5/db5ab0d41a2a57274902d32ea8e6f1ec.jpg"},{"id":42638,"name":"Сенсорное управление","slug":"sensornoe-upravlenie","language":"rus","games_count":236,"image_background":"https://media.rawg.io/media/screenshots/c8a/c8a2d3c82dc11dcec380103d92580af2.jpeg"}],"esrb_rating":{"id":2,"name":"Everyone 10+","slug":"everyone-10-plus","name_en":"Everyone 10+","name_ru":"С 10 лет"},"user_game":null,"reviews_count":13,"saturated_color":"0f0f0f","dominant_color":"0f0f0f","short_screenshots":[{"id":-1,"image":"https://media.rawg.io/media/screenshots/462/4627cd7641ab222926970f7540b40743.jpeg"},{"id":140671,"image":"https://media.rawg.io/media/screenshots/d9d/d9d53cdc77f5e008983f53ef1162618d.jpg"},{"id":140672,"image":"https://media.rawg.io/media/screenshots/ccf/ccfac9a849949591ea01533e47e17d7e.jpg"},{"id":140673,"image":"https://media.rawg.io/media/screenshots/604/604820d19677bc0c330735871ad8aa59.jpg"},{"id":140674,"image":"https://media.rawg.io/media/screenshots/895/8959b6df47354e9e4480aece8176db8e.jpg"},{"id":140675,"image":"https://media.rawg.io/media/screenshots/d47/d47bd732e0e65d18c304f5689cc19f1b.jpg"},{"id":140676,"image":"https://media.rawg.io/media/screenshots/d16/d1661d6f13814f39c37436ae648b8bb4.jpg"}],"parent_platforms":[{"platform":{"id":1,"name":"PC","slug":"pc"}},{"platform":{"id":4,"name":"iOS","slug":"ios"}},{"platform":{"id":5,"name":"Apple Macintosh","slug":"mac"}}],"genres":[{"id":40,"name":"Casual","slug":"casual"},{"id":10,"name":"Strategy","slug":"strategy"},{"id":51,"name":"Indie","slug":"indie"},{"id":4,"name":"Action","slug":"action"}]}],"user_platforms":false}