{"count":6,"next":"https://api.rawg.io/api/games/storm-in-a-teacup/screenshots?key=3c73e733b66c4c38b0c30137de245589&page=2&page_size=5","previous":null,"results":[{"id":196841,"image":"https://media.rawg.io/media/screenshots/cdb/cdb23342f015e5de7977b3f233b08653.jpg","width":1920,"height":1080,"is_deleted":false},{"id":196842,"image":"https://media.rawg.io/media/screenshots/c5e/c5e291b2bc48e7a31150cece674de052.jpg","width":1920,"height":1080,"is_deleted":false},{"id":196843,"image":"https://media.rawg.io/media/screenshots/aae/aae20885e1908ce0f173b85f234012c3.jpg","width":1920,"height":1080,"is_deleted":false},{"id":196844,"image":"https://media.rawg.io/media/screenshots/f00/f00532de7260ad8879af2ee2b334a610.jpg","width":1920,"height":1080,"is_deleted":false},{"id":196845,"image":"https://media.rawg.io/media/screenshots/4f9/4f90300ffec3029c904508fe53f93bb5.jpg","width":1920,"height":1080,"is_deleted":false}]}