{"count":5755,"next":"https://api.rawg.io/api/games?key=3c73e733b66c4c38b0c30137de245589&page=2&page_size=1&search=elden+ring","previous":null,"results":[{"slug":"elden-ring","name":"Elden Ring","playtime":62,"platforms":[{"platform":{"id":4,"name":"PC","slug":"pc"}},{"platform":{"id":187,"name":"PlayStation 5","slug":"playstation5"}},{"platform":{"id":1,"name":"Xbox One","slug":"xbox-one"}},{"platform":{"id":18,"name":"PlayStation 4","slug":"playstation4"}},{"platform":{"id":186,"name":"Xbox Series S/X","slug":"xbox-series-x"}}],"stores":[{"store":{"id":1,"name":"Steam","slug":"steam"}},{"store":{"id":3,"name":"PlayStation Store","slug":"playstation-store"}},{"store":{"id":2,"name":"Xbox Store","slug":"xbox-store"}}],"released":"2022-02-25","tba":false,"background_image":"https://media.rawg.io/media/games/b29/b294fdd866dcdb643e7bab370a552855.jpg","rating":4.4,"rating_top":5,"ratings":[{"id":5,"title":"exceptional","count":906,"percent":65.46},{"id":4,"title":"recommended","count":274,"percent":19.8},{"id":3,"title":"meh","count":132,"percent":9.54},{"id":1,"title":"skip","count":72,"percent":5.2}],"ratings_count":1344,"reviews_text_count":26,"added":7825,"added_by_status":{"yet":401,"owned":4693,"beaten":1007,"toplay":1017,"dropped":383,"playing":324},"metacritic":95,"suggestions_count":581,"updated":"2025-05-02T10:55:26","id":326243,"score":"71.11653","clip":null,"tags":[{"id":31,"name":"Singleplayer","slug":"singleplayer","language":"eng","games_count":239144,"image_background":"https://media.rawg.io/media/games/73e/73eecb8909e0c39fb246f457b5d6cbbe.jpg"},{"id":42396,"name":"Для одного игрока","slug":"dlia-odnogo-igroka","language":"rus","games_count":61235,"image_background":"https://media.rawg.io/media/games/562/562553814dd54e001a541e4ee83a591c.jpg"},{"id":42417,"name":"Экшен","slug":"ekshen","language":"rus","games_count":46035,"image_background":"https://media.rawg.io/media/games/587/587588c64afbff80e6f444eb2e46f9da.jpg"},{"id":40847,"name":"Steam Achievements","slug":"steam-achievements","language":"eng","games_count":45430,"image_background":"https://media.rawg.io/media/games/20a/20aa03a10cda45239fe22d035c0ebe64.jpg"},{"id":7,"name":"Multiplayer","slug":"multiplayer","language":"eng","games_count":40624,"image_background":"https://media.rawg.io/media/games/6c5/6c55e22185876626881b76c11922b073.jpg"},{"id":40836,"name":"Full controller support","slug":"full-controller-support","language":"eng","games_count":21419,"image_background":"https://media.rawg.io/media/games/4be/4be6a6ad0364751a96229c56bf69be59.jpg"},{"id":13,"name":"Atmospheric","slug":"atmospheric","language":"eng","games_count":36877,"image_background":"https://media.rawg.io/media/games/737/737ea5662211d2e0bbd6f5989189e4f1.jpg"},{"id":42425,"name":"Для нескольких игроков","slug":"dlia-neskolkikh-igrokov","language":"rus","games_count":11608,"image_background":"https://media.rawg.io/media/games/713/713269608dc8f2f40f5a670a14b2de94.jpg"},{"id":42401,"name":"Отличный саундтрек","slug":"otlichnyi-saundtrek","language":"rus","games_count":4650,"image_background":"https://media.rawg.io/media/games/34b/34b1f1850a1c06fd971bc6ab3ac0ce0e.jpg"},{"id":42,"name":"Great Soundtrack","slug":"great-soundtrack","language":"eng","games_count":3426,"image_background":"https://media.rawg.io/media/games/198/1988a337305e008b41d7f536ce9b73f6.jpg"},{"id":24,"name":"RPG","slug":"rpg","language":"eng","games_count":24245,"image_background":"https://media.rawg.io/media/games/618/618c2031a07bbff6b4f611f10b6bcdbc.jpg"},{"id":18,"name":"Co-op","slug":"co-op","language":"eng","games_count":13194,"image_background":"https://media.rawg.io/media/games/511/5118aff5091cb3efec399c808f8c598f.jpg"},{"id":42412,"name":"Ролевая игра","slug":"rolevaia-igra","language":"rus","games_count":20646,"image_background":"https://media.rawg.io/media/games/157/15742f2f67eacff546738e1ab5c19d20.jpg"},{"id":42442,"name":"Открытый мир","slug":"otkrytyi-mir","language":"rus","games_count":6725,"image_background":"https://media.rawg.io/media/games/da1/da1b267764d77221f07a4386b6548e5a.jpg"},{"id":36,"name":"Open World","slug":"open-world","language":"eng","games_count":8539,"image_background":"https://media.rawg.io/media/games/e6d/e6de699bd788497f4b52e2f41f9698f2.jpg"},{"id":411,"name":"cooperative","slug":"cooperative","language":"eng","games_count":5907,"image_background":"https://media.rawg.io/media/games/736/73619bd336c894d6941d926bfd563946.jpg"},{"id":42441,"name":"От третьего лица","slug":"ot-tretego-litsa","language":"rus","games_count":8881,"image_background":"https://media.rawg.io/media/games/960/960b601d9541cec776c5fa42a00bf6c4.jpg"},{"id":149,"name":"Third Person","slug":"third-person","language":"eng","games_count":13356,"image_background":"https://media.rawg.io/media/games/5c0/5c0dd63002cb23f804aab327d40ef119.jpg"},{"id":9,"name":"Online Co-Op","slug":"online-co-op","language":"eng","games_count":6766,"image_background":"https://media.rawg.io/media/games/baf/baf9905270314e07e6850cffdb51df41.jpg"},{"id":42420,"name":"Сложная","slug":"slozhnaia","language":"rus","games_count":5909,"image_background":"https://media.rawg.io/media/games/238/2383a172b4d50a7b44e07980eb7141ea.jpg"},{"id":42480,"name":"Фэнтези","slug":"fentezi","language":"rus","games_count":14511,"image_background":"https://media.rawg.io/media/games/aa3/aa36ba4b486a03ddfaef274fb4f5afd4.jpg"},{"id":64,"name":"Fantasy","slug":"fantasy","language":"eng","games_count":30755,"image_background":"https://media.rawg.io/media/games/af7/af7a831001c5c32c46e950cc883b8cb7.jpg"},{"id":49,"name":"Difficult","slug":"difficult","language":"eng","games_count":13881,"image_background":"https://media.rawg.io/media/games/fba/fbae1bcfae1feffda6a11fbc1c939420.jpg"},{"id":42402,"name":"Насилие","slug":"nasilie","language":"rus","games_count":6263,"image_background":"https://media.rawg.io/media/games/569/56978b5a77f13aa2ec5d09ec81d01cad.jpg"},{"id":34,"name":"Violent","slug":"violent","language":"eng","games_count":7301,"image_background":"https://media.rawg.io/media/games/0af/0af85e8edddfa55368e47c539914a220.jpg"},{"id":97,"name":"Action RPG","slug":"action-rpg","language":"eng","games_count":8010,"image_background":"https://media.rawg.io/media/games/bc0/bc06a29ceac58652b684deefe7d56099.jpg"},{"id":42489,"name":"Ролевой экшен","slug":"rolevoi-ekshen","language":"rus","games_count":5001,"image_background":"https://media.rawg.io/media/games/849/849414b978db37d4563ff9e4b0d3a787.jpg"},{"id":157,"name":"PvP","slug":"pvp","language":"eng","games_count":10896,"image_background":"https://media.rawg.io/media/games/786/7863e587bac630de82fca50d799236a9.jpg"},{"id":42434,"name":"Игрок против игрока","slug":"igrok-protiv-igroka","language":"rus","games_count":6311,"image_background":"https://media.rawg.io/media/games/ac7/ac7b8327343da12c971cfc418f390a11.jpg"},{"id":42506,"name":"Тёмное фэнтези","slug":"tiomnoe-fentezi","language":"rus","games_count":3723,"image_background":"https://media.rawg.io/media/games/63f/63f0e68688cad279ed38cde931dbfcdb.jpg"},{"id":571,"name":"3D","slug":"3d","language":"eng","games_count":89350,"image_background":"https://media.rawg.io/media/games/baf/baf9905270314e07e6850cffdb51df41.jpg"},{"id":40,"name":"Dark Fantasy","slug":"dark-fantasy","language":"eng","games_count":5034,"image_background":"https://media.rawg.io/media/games/cfe/cfe5960b5caca432f3575fc7d8ff736b.jpg"},{"id":42555,"name":"Симулятор ходьбы","slug":"simuliator-khodby","language":"rus","games_count":3701,"image_background":"https://media.rawg.io/media/games/7ba/7baf4663962bad7197e2470d59a6e322.jpg"},{"id":42564,"name":"Расслабляющая","slug":"rasslabliaiushchaia","language":"rus","games_count":11623,"image_background":"https://media.rawg.io/media/games/e44/e445335e611b4ccf03af71fffcbd30a4.jpg"},{"id":45878,"name":"Online PvP","slug":"online-pvp","language":"eng","games_count":5640,"image_background":"https://media.rawg.io/media/games/8bd/8bda6d876f3e241c6024022299553efd.jpg"},{"id":40937,"name":"Steam Trading Cards","slug":"steam-trading-cards-2","language":"eng","games_count":750,"image_background":"https://media.rawg.io/media/games/260/26023c855f1769a93411d6a7ea084632.jpeg"},{"id":58132,"name":"Атмосферная","slug":"atmosfernaia","language":"rus","games_count":12580,"image_background":"https://media.rawg.io/media/screenshots/a2e/a2ecf055ac9339d3a58808842c44a9b7.jpg"},{"id":42592,"name":"Похожа на Dark Souls","slug":"pokhozha-na-dark-souls","language":"rus","games_count":1264,"image_background":"https://media.rawg.io/media/games/b01/b01aa6b2d6d4f683203e9471a8b8d5b5.jpg"},{"id":581,"name":"Epic","slug":"epic","language":"eng","games_count":4126,"image_background":"https://media.rawg.io/media/screenshots/4f2/4f2246a85225b7a91d63990fe540b7c4.jpg"},{"id":580,"name":"Souls-like","slug":"souls-like","language":"eng","games_count":1668,"image_background":"https://media.rawg.io/media/games/4be/4be6a6ad0364751a96229c56bf69be59.jpg"},{"id":70351,"name":"Сетевой кооператив","slug":"setevoi-kooperativ","language":"rus","games_count":2387,"image_background":"https://media.rawg.io/media/games/673/673f27be4c5dbf37ce3ed0ed5ddf9d8d.jpg"},{"id":1221,"name":"history","slug":"history","language":"eng","games_count":2383,"image_background":"https://media.rawg.io/media/games/4e9/4e908c9270228430128105bcd88e51bc.jpg"}],"esrb_rating":{"id":4,"name":"Mature","slug":"mature","name_en":"Mature","name_ru":"С 17 лет"},"user_game":null,"reviews_count":1384,"saturated_color":"0f0f0f","dominant_color":"0f0f0f","short_screenshots":[{"id":-1,"image":"https://media.rawg.io/media/games/b29/b294fdd866dcdb643e7bab370a552855.jpg"},{"id":2877235,"image":"https://media.rawg.io/media/screenshots/36f/36f941f72e2b2a41629f5fb3bd448688.jpg"},{"id":2877236,"image":"https://media.rawg.io/media/screenshots/290/29096848622521df7555850000236cb6.jpg"},{"id":2877237,"image":"https://media.rawg.io/media/screenshots/807/807685454ea8fb87363eedd49677f49b.jpg"},{"id":2877238,"image":"https://media.rawg.io/media/screenshots/2ee/2eea4d4cce2836f689d9d39d2a4a94d5.jpg"},{"id":2877239,"image":"https://media.rawg.io/media/screenshots/de9/de9b28bdd0bdb9937c7f82e55f845bb6.jpg"},{"id":2877240,"image":"https://media.rawg.io/media/screenshots/3a2/3a2e5f31e2061bc566bcfd30fda56a17.jpg"}],"parent_platforms":[{"platform":{"id":1,"name":"PC","slug":"pc"}},{"platform":{"id":2,"name":"PlayStation","slug":"playstation"}},{"platform":{"id":3,"name":"Xbox","slug":"xbox"}}],"genres":[{"id":4,"name":"Action","slug":"action"},{"id":5,"name":"RPG","slug":"role-playing-games-rpg"}]}],"user_platforms":false}