{"count":18081,"next":"https://api.rawg.io/api/games?key=3c73e733b66c4c38b0c30137de245589&page=2&page_size=1&search=Insane+2","previous":null,"results":[{"slug":"insane-2","name":"Insane 2","playtime":1,"platforms":[{"platform":{"id":4,"name":"PC","slug":"pc"}}],"stores":[{"store":{"id":1,"name":"Steam","slug":"steam"}}],"released":"2011-09-30","tba":false,"background_image":"https://media.rawg.io/media/screenshots/54b/54b5611e35a2f118c8540f1698f9e02e.jpg","rating":3.08,"rating_top":4,"ratings":[{"id":4,"title":"recommended","count":10,"percent":41.67},{"id":3,"title":"meh","count":10,"percent":41.67},{"id":1,"title":"skip","count":4,"percent":16.67}],"ratings_count":24,"reviews_text_count":0,"added":414,"added_by_status":{"yet":13,"owned":385,"beaten":7,"toplay":1,"dropped":6,"playing":2},"metacritic":null,"suggestions_count":599,"updated":"2025-04-14T21:27:56","id":22478,"score":"66.505516","clip":null,"tags":[{"id":31,"name":"Singleplayer","slug":"singleplayer","language":"eng","games_count":238777,"image_background":"https://media.rawg.io/media/games/8cc/8cce7c0e99dcc43d66c8efd42f9d03e3.jpg"},{"id":42417,"name":"Экшен","slug":"ekshen","language":"rus","games_count":45882,"image_background":"https://media.rawg.io/media/games/618/618c2031a07bbff6b4f611f10b6bcdbc.jpg"},{"id":40847,"name":"Steam Achievements","slug":"steam-achievements","language":"eng","games_count":45242,"image_background":"https://media.rawg.io/media/games/198/1988a337305e008b41d7f536ce9b73f6.jpg"},{"id":7,"name":"Multiplayer","slug":"multiplayer","language":"eng","games_count":40575,"image_background":"https://media.rawg.io/media/games/b8c/b8c243eaa0fbac8115e0cdccac3f91dc.jpg"},{"id":42425,"name":"Для нескольких игроков","slug":"dlia-neskolkikh-igrokov","language":"rus","games_count":11576,"image_background":"https://media.rawg.io/media/games/d0f/d0f91fe1d92332147e5db74e207cfc7a.jpg"},{"id":42449,"name":"Локальный мультиплеер","slug":"lokalnyi-multipleer","language":"rus","games_count":4101,"image_background":"https://media.rawg.io/media/games/e74/e74458058b35e01c1ae3feeb39a3f724.jpg"},{"id":42587,"name":"Аркада","slug":"arkada","language":"rus","games_count":13061,"image_background":"https://media.rawg.io/media/games/0b3/0b34647c42271600399b93d19b10f1aa.jpg"},{"id":42496,"name":"Гонки","slug":"gonki","language":"rus","games_count":4279,"image_background":"https://media.rawg.io/media/games/7cf/7cf38d2d80267c121c6d0d361e9429ce.jpg"},{"id":42613,"name":"Разделение экрана","slug":"razdelenie-ekrana","language":"rus","games_count":732,"image_background":"https://media.rawg.io/media/games/89a/89a700d3c6a76bd0610ca89ccd20da54.jpg"},{"id":132,"name":"Offroad","slug":"offroad","language":"eng","games_count":1023,"image_background":"https://media.rawg.io/media/screenshots/71e/71e4136c93fee3d76bb0e94fe0fd2d08.jpg"},{"id":42666,"name":"Бездорожье","slug":"bezdorozhe","language":"rus","games_count":290,"image_background":"https://media.rawg.io/media/screenshots/5c5/5c5483eddf5c17c4fff3e260571a3969.jpg"}],"esrb_rating":null,"user_game":null,"reviews_count":24,"saturated_color":"0f0f0f","dominant_color":"0f0f0f","short_screenshots":[{"id":-1,"image":"https://media.rawg.io/media/screenshots/54b/54b5611e35a2f118c8540f1698f9e02e.jpg"},{"id":214404,"image":"https://media.rawg.io/media/screenshots/497/497fc2619b6e042d55e86349439a6c24.jpg"},{"id":214405,"image":"https://media.rawg.io/media/screenshots/c57/c575a5fe6a165ec38a971a088a327688.jpg"},{"id":214406,"image":"https://media.rawg.io/media/screenshots/fe2/fe245c8449326bd208d051341ae9dc5a.jpg"},{"id":214407,"image":"https://media.rawg.io/media/screenshots/4ac/4ac6912a99e4b0e8f4b6f8ab6ead999a.jpg"},{"id":214408,"image":"https://media.rawg.io/media/screenshots/d81/d810a1d49666ac91ea467efae903a274.jpg"},{"id":214409,"image":"https://media.rawg.io/media/screenshots/be5/be50cab3171d6a355d76be95301cb7da.jpg"}],"parent_platforms":[{"platform":{"id":1,"name":"PC","slug":"pc"}}],"genres":[{"id":1,"name":"Racing","slug":"racing"}]}],"user_platforms":false}